LAB1/simulation/qsim/LAB1.msim.vcd
$comment
	File created using the following command:
		vcd file LAB1.msim.vcd -direction
$end
$date
	Sun Oct 01 14:35:57 2017
$end
$version
	ModelSim Version 10.1d
$end
$timescale
	1ps
$end
$scope module TIME13_vlg_vec_tst $end
$var reg 3 ! IN [2:0] $end
$var wire 1 " OUT [6] $end
$var wire 1 # OUT [5] $end
$var wire 1 $ OUT [4] $end
$var wire 1 % OUT [3] $end
$var wire 1 & OUT [2] $end
$var wire 1 ' OUT [1] $end
$var wire 1 ( OUT [0] $end
$var wire 1 ) sampler $end
$scope module i1 $end
$var wire 1 * gnd $end
$var wire 1 + vcc $end
$var wire 1 , unknown $end
$var tri1 1 - devclrn $end
$var tri1 1 . devpor $end
$var tri1 1 / devoe $end
$var wire 1 0 inst|inst12|inst4~combout $end
$var wire 1 1 inst|inst12|inst2~combout $end
$var wire 1 2 inst|inst11|inst2~0_combout $end
$var wire 1 3 inst|inst10|inst2~0_combout $end
$var wire 1 4 inst|inst9|inst~combout $end
$var wire 1 5 IN~combout [2] $end
$var wire 1 6 IN~combout [1] $end
$var wire 1 7 IN~combout [0] $end
$upscope $end
$upscope $end
$enddefinitions $end
#0
$dumpvars
b0 !
0(
0'
0&
0%
0$
0#
0"
x)
0*
1+
x,
1-
1.
1/
00
01
02
03
04
07
06
05
$end
#10000
b1 !
17
0)
14
13
1(
1&
1%
#20000
b11 !
b10 !
07
16
1)
04
12
0(
1'
0&
1$
#30000
b11 !
17
0)
14
03
02
11
1(
1&
0%
0$
1#
#40000
b111 !
b101 !
b100 !
07
06
15
1)
12
0(
0'
1$
#50000
b101 !
17
0)
04
02
01
10
1(
0&
0$
0#
1"
#60000
b111 !
b110 !
07
16
1)
14
13
0(
1'
1&
1%
#70000
b111 !
17
0)
04
12
1(
0&
1$
