g08_lab5/simulation/qsim/g08_lab5.msim.vcd
$comment
	File created using the following command:
		vcd file g08_lab5.msim.vcd -direction
$end
$date
	Tue Nov 28 17:15:06 2017
$end
$version
	ModelSim Version 10.1d
$end
$timescale
	1ps
$end
$scope module DIVIDE10_vlg_vec_tst $end
$var reg 6 ! INPUT [5:0] $end
$var wire 1 " LSB [3] $end
$var wire 1 # LSB [2] $end
$var wire 1 $ LSB [1] $end
$var wire 1 % LSB [0] $end
$var wire 1 & MSB [3] $end
$var wire 1 ' MSB [2] $end
$var wire 1 ( MSB [1] $end
$var wire 1 ) MSB [0] $end
$var wire 1 * sampler $end
$scope module i1 $end
$var wire 1 + gnd $end
$var wire 1 , vcc $end
$var wire 1 - unknown $end
$var tri1 1 . devclrn $end
$var tri1 1 / devpor $end
$var tri1 1 0 devoe $end
$var wire 1 1 Div0|auto_generated|divider|divider|add_sub_3_result_int[1]~0_combout $end
$var wire 1 2 Div0|auto_generated|divider|divider|add_sub_3_result_int[2]~2_combout $end
$var wire 1 3 Div0|auto_generated|divider|divider|add_sub_3_result_int[3]~4_combout $end
$var wire 1 4 Div0|auto_generated|divider|divider|add_sub_4_result_int[1]~0_combout $end
$var wire 1 5 Div0|auto_generated|divider|divider|add_sub_4_result_int[2]~2_combout $end
$var wire 1 6 Div0|auto_generated|divider|divider|add_sub_4_result_int[3]~4_combout $end
$var wire 1 7 Mod0|auto_generated|divider|divider|add_sub_3_result_int[1]~0_combout $end
$var wire 1 8 Mod0|auto_generated|divider|divider|add_sub_3_result_int[2]~2_combout $end
$var wire 1 9 Mod0|auto_generated|divider|divider|add_sub_3_result_int[3]~4_combout $end
$var wire 1 : Mod0|auto_generated|divider|divider|add_sub_4_result_int[1]~0_combout $end
$var wire 1 ; Mod0|auto_generated|divider|divider|add_sub_4_result_int[2]~2_combout $end
$var wire 1 < Mod0|auto_generated|divider|divider|add_sub_4_result_int[3]~4_combout $end
$var wire 1 = Mod0|auto_generated|divider|divider|add_sub_4_result_int[4]~6_combout $end
$var wire 1 > Div0|auto_generated|divider|divider|StageOut[18]~16_combout $end
$var wire 1 ? Div0|auto_generated|divider|divider|StageOut[17]~18_combout $end
$var wire 1 @ Div0|auto_generated|divider|divider|StageOut[16]~20_combout $end
$var wire 1 A Div0|auto_generated|divider|divider|StageOut[15]~22_combout $end
$var wire 1 B Div0|auto_generated|divider|divider|StageOut[21]~26_combout $end
$var wire 1 C Div0|auto_generated|divider|divider|StageOut[20]~28_combout $end
$var wire 1 D Mod0|auto_generated|divider|divider|StageOut[21]~24_combout $end
$var wire 1 E Mod0|auto_generated|divider|divider|StageOut[20]~26_combout $end
$var wire 1 F Mod0|auto_generated|divider|divider|StageOut[19]~28_combout $end
$var wire 1 G Mod0|auto_generated|divider|divider|StageOut[18]~30_combout $end
$var wire 1 H Mod0|auto_generated|divider|divider|StageOut[24]~32_combout $end
$var wire 1 I Div0|auto_generated|divider|divider|StageOut[23]~30_combout $end
$var wire 1 J Div0|auto_generated|divider|divider|StageOut[22]~31_combout $end
$var wire 1 K Mod0|auto_generated|divider|divider|StageOut[28]~42_combout $end
$var wire 1 L Mod0|auto_generated|divider|divider|StageOut[27]~43_combout $end
$var wire 1 M Div0|auto_generated|divider|divider|add_sub_3_result_int[1]~1 $end
$var wire 1 N Div0|auto_generated|divider|divider|add_sub_3_result_int[2]~3 $end
$var wire 1 O Div0|auto_generated|divider|divider|add_sub_3_result_int[3]~5 $end
$var wire 1 P Div0|auto_generated|divider|divider|add_sub_3_result_int[4]~6_combout $end
$var wire 1 Q Div0|auto_generated|divider|divider|StageOut[18]~17_combout $end
$var wire 1 R Div0|auto_generated|divider|divider|StageOut[17]~19_combout $end
$var wire 1 S Div0|auto_generated|divider|divider|StageOut[16]~21_combout $end
$var wire 1 T Div0|auto_generated|divider|divider|StageOut[15]~23_combout $end
$var wire 1 U Div0|auto_generated|divider|divider|add_sub_4_result_int[1]~1 $end
$var wire 1 V Div0|auto_generated|divider|divider|add_sub_4_result_int[2]~3 $end
$var wire 1 W Div0|auto_generated|divider|divider|add_sub_4_result_int[3]~5 $end
$var wire 1 X Div0|auto_generated|divider|divider|add_sub_4_result_int[4]~7_cout $end
$var wire 1 Y Div0|auto_generated|divider|divider|add_sub_4_result_int[5]~8_combout $end
$var wire 1 Z Div0|auto_generated|divider|divider|StageOut[23]~24_combout $end
$var wire 1 [ Div0|auto_generated|divider|divider|StageOut[22]~25_combout $end
$var wire 1 \ Div0|auto_generated|divider|divider|StageOut[21]~27_combout $end
$var wire 1 ] Div0|auto_generated|divider|divider|StageOut[20]~29_combout $end
$var wire 1 ^ Div0|auto_generated|divider|divider|add_sub_5_result_int[1]~1_cout $end
$var wire 1 _ Div0|auto_generated|divider|divider|add_sub_5_result_int[2]~3_cout $end
$var wire 1 ` Div0|auto_generated|divider|divider|add_sub_5_result_int[3]~5_cout $end
$var wire 1 a Div0|auto_generated|divider|divider|add_sub_5_result_int[4]~7_cout $end
$var wire 1 b Div0|auto_generated|divider|divider|add_sub_5_result_int[5]~8_combout $end
$var wire 1 c Mod0|auto_generated|divider|divider|add_sub_3_result_int[1]~1 $end
$var wire 1 d Mod0|auto_generated|divider|divider|add_sub_3_result_int[2]~3 $end
$var wire 1 e Mod0|auto_generated|divider|divider|add_sub_3_result_int[3]~5 $end
$var wire 1 f Mod0|auto_generated|divider|divider|add_sub_3_result_int[4]~6_combout $end
$var wire 1 g Mod0|auto_generated|divider|divider|StageOut[21]~25_combout $end
$var wire 1 h Mod0|auto_generated|divider|divider|StageOut[20]~27_combout $end
$var wire 1 i Mod0|auto_generated|divider|divider|StageOut[19]~29_combout $end
$var wire 1 j Mod0|auto_generated|divider|divider|StageOut[18]~31_combout $end
$var wire 1 k Mod0|auto_generated|divider|divider|add_sub_4_result_int[1]~1 $end
$var wire 1 l Mod0|auto_generated|divider|divider|add_sub_4_result_int[2]~3 $end
$var wire 1 m Mod0|auto_generated|divider|divider|add_sub_4_result_int[3]~5 $end
$var wire 1 n Mod0|auto_generated|divider|divider|add_sub_4_result_int[4]~7 $end
$var wire 1 o Mod0|auto_generated|divider|divider|add_sub_4_result_int[5]~8_combout $end
$var wire 1 p Mod0|auto_generated|divider|divider|StageOut[24]~33_combout $end
$var wire 1 q Mod0|auto_generated|divider|divider|add_sub_5_result_int[1]~0_combout $end
$var wire 1 r Mod0|auto_generated|divider|divider|StageOut[28]~34_combout $end
$var wire 1 s Mod0|auto_generated|divider|divider|StageOut[27]~35_combout $end
$var wire 1 t Mod0|auto_generated|divider|divider|StageOut[26]~36_combout $end
$var wire 1 u Mod0|auto_generated|divider|divider|StageOut[25]~38_combout $end
$var wire 1 v Mod0|auto_generated|divider|divider|add_sub_5_result_int[1]~1 $end
$var wire 1 w Mod0|auto_generated|divider|divider|add_sub_5_result_int[2]~3 $end
$var wire 1 x Mod0|auto_generated|divider|divider|add_sub_5_result_int[3]~5 $end
$var wire 1 y Mod0|auto_generated|divider|divider|add_sub_5_result_int[4]~7_cout $end
$var wire 1 z Mod0|auto_generated|divider|divider|add_sub_5_result_int[5]~9_cout $end
$var wire 1 { Mod0|auto_generated|divider|divider|add_sub_5_result_int[6]~10_combout $end
$var wire 1 | Mod0|auto_generated|divider|divider|StageOut[31]~39_combout $end
$var wire 1 } Mod0|auto_generated|divider|divider|add_sub_5_result_int[2]~2_combout $end
$var wire 1 ~ Mod0|auto_generated|divider|divider|StageOut[25]~37_combout $end
$var wire 1 !! Mod0|auto_generated|divider|divider|StageOut[32]~40_combout $end
$var wire 1 "! Mod0|auto_generated|divider|divider|add_sub_5_result_int[3]~4_combout $end
$var wire 1 #! Mod0|auto_generated|divider|divider|StageOut[26]~44_combout $end
$var wire 1 $! Mod0|auto_generated|divider|divider|StageOut[33]~41_combout $end
$var wire 1 %! INPUT~combout [5] $end
$var wire 1 &! INPUT~combout [4] $end
$var wire 1 '! INPUT~combout [3] $end
$var wire 1 (! INPUT~combout [2] $end
$var wire 1 )! INPUT~combout [1] $end
$var wire 1 *! INPUT~combout [0] $end
$upscope $end
$upscope $end
$enddefinitions $end
#0
$dumpvars
b0 !
0%
0$
0#
0"
0)
0(
0'
0&
x*
0+
1,
x-
1.
1/
10
11
12
03
14
15
06
17
18
09
1:
1;
0<
1=
0>
0?
0@
0A
0B
0C
0D
0E
0F
0G
0H
0I
0J
0K
0L
0M
1N
0O
1P
0Q
0R
0S
0T
0U
1V
0W
1X
1Y
0Z
0[
0\
0]
0^
1_
0`
1a
1b
0c
1d
0e
1f
0g
0h
0i
0j
0k
1l
0m
1n
1o
0p
1q
0r
0s
0t
0u
0v
1w
0x
1y
0z
1{
0|
1}
0~
0!!
0"!
0#!
0$!
0*!
0)!
0(!
0'!
0&!
0%!
$end
#10000
b1 !
1*!
0*
1%
#20000
b11 !
b10 !
0*!
1)!
1*
1|
1H
1C
0%
1v
0q
1^
1$
0w
0}
0_
1"!
#30000
b11 !
1*!
0*
1%
#40000
b111 !
b101 !
b100 !
0*!
0)!
1(!
1*
0|
0H
0C
1~
1G
1B
1A
0%
0v
1q
0^
1!!
1}
1k
0:
1U
04
0$
0}
0l
0;
0V
05
1#
1<
16
#50000
b101 !
1*!
0*
1%
#60000
b111 !
b110 !
0*!
1)!
1*
1|
1H
1C
0%
1v
0q
1^
1$
1}
#70000
b111 !
1*!
0*
1%
#80000
b1111 !
b1011 !
b1001 !
b1000 !
0*!
0)!
0(!
1'!
1*
0|
0H
0C
0~
0G
0B
0A
1#!
1J
1F
1@
1c
07
1M
01
0%
0v
1q
0^
0!!
0}
0k
1:
0U
14
1$!
1x
0"!
1`
1;
15
0d
08
0N
02
0$
1w
1}
1_
0;
05
0y
0a
19
13
0#
1"
0x
1"!
0`
1z
0b
1y
1a
0{
1)
0z
1b
1!!
1|
1{
1#
1$
0)
0!!
0|
0#
0$
#90000
b1001 !
1*!
0*
1%
#100000
b1011 !
b1010 !
0*!
1)!
1*
1|
1H
1C
0%
1v
0q
1^
1$
0w
0}
0_
1x
0"!
1`
0y
0a
1z
0b
0{
1)
0$!
0|
0"
0$
#110000
b1011 !
1*!
0*
1%
#120000
b1111 !
b1101 !
b1100 !
0*!
0)!
1(!
1*
0H
0C
1~
1G
1B
1A
0%
0v
1q
0^
1}
1k
0:
1U
04
0}
1|
1!!
1;
15
0!!
1$
1#
0#
#130000
b1101 !
1*!
0*
1%
#140000
b1111 !
b1110 !
0*!
1)!
1*
1H
1C
0%
1v
0q
1^
1}
0|
1!!
0$
1#
#150000
b1111 !
1*!
0*
1%
#160000
b11111 !
b10111 !
b10011 !
b10001 !
b10000 !
0*!
0)!
0(!
0'!
1&!
1*
0H
0C
0~
0G
0B
0A
0#!
0J
0F
0@
0c
17
0M
11
1L
1I
1E
1?
18
12
0%
0v
1q
0^
0}
0k
1:
0U
14
0x
1"!
0`
0;
05
08
02
1m
0<
1W
06
1w
1}
1|
1_
0!!
1l
1;
1V
15
1$!
0n
0=
0X
0"!
1!!
0m
1<
0W
16
0o
0Y
1$
0#
1"
0$!
1n
1=
1s
1X
1Z
1u
1t
0L
1\
1[
0I
1#
1(
1o
1r
1Y
0w
0}
1"!
0_
0"
0u
0t
0s
0r
1L
0\
0[
0Z
1I
1x
0"!
0!!
1$!
1`
0(
1w
1}
0$!
0x
1"!
1_
0`
0#
1"
0"!
1!!
1$!
0"
0$!
1#
1"
0"
#170000
b10001 !
1*!
0*
1%
#180000
b10011 !
b10010 !
0*!
1)!
1*
1H
1C
0%
1v
0q
1^
0w
0}
0|
0_
1"!
0!!
0$
1$!
0#
1"
#190000
b10011 !
1*!
0*
1%
#200000
b10111 !
b10101 !
b10100 !
0*!
0)!
1(!
1*
0H
0C
1~
1G
1B
1A
0%
0v
1q
0^
1}
1k
0:
1U
04
0}
1|
1!!
0l
0;
0V
05
0!!
1m
0<
1W
06
1$
1#
0n
0=
0X
0#
0o
0Y
0~
0L
0I
0B
1(
1w
1}
1y
1a
1_
0"!
1!!
0z
1b
0$!
1{
1#
0)
0!!
0|
0"
0#
0$
#210000
b10101 !
1*!
0*
1%
#220000
b10111 !
b10110 !
0*!
1)!
1*
1|
1p
1]
0%
1v
0q
1^
1$
0w
0}
0_
1"!
#230000
b10111 !
1*!
0*
1%
#240000
b11111 !
b11011 !
b11001 !
b11000 !
0*!
0)!
0(!
1'!
1*
0|
0p
0]
0G
0A
1F
1@
1c
07
1M
01
0%
0v
1q
0^
0k
1:
0U
14
1;
15
18
12
0$
1w
1}
1_
0;
1u
05
1\
1t
1[
1!!
0t
0w
0}
0[
0_
1$!
0$!
1#
1"
0"
#250000
b11001 !
1*!
0*
1%
#260000
b11011 !
b11010 !
0*!
1)!
1*
1|
1p
1]
0%
1v
0q
1^
1$
1}
#270000
b11011 !
1*!
0*
1%
#280000
b11111 !
b11101 !
b11100 !
0*!
0)!
1(!
1*
0|
0p
0]
1G
1A
0%
0v
1q
0^
1k
0:
1U
04
0$
0}
1;
0u
15
0\
0!!
1t
1w
1}
1[
1_
1$!
0#
1"
#290000
b11101 !
1*!
0*
1%
#300000
b11111 !
b11110 !
0*!
1)!
1*
1|
1p
1]
0%
1v
0q
1^
1$
0w
0}
0_
1x
0"!
1`
0y
0a
1z
0b
0{
1)
0$!
0|
0"
0$
#310000
b11111 !
1*!
0*
1%
#320000
b111111 !
b101111 !
b100111 !
b100011 !
b100001 !
b100000 !
0*!
0)!
0(!
0'!
0&!
1%!
1*
0p
0]
0G
0A
0F
0@
0c
17
0M
11
0E
0?
08
02
1D
1>
1e
09
1O
03
0%
0v
1q
0^
0k
1:
0U
14
0;
05
1d
18
1N
12
0m
1<
0W
16
1=
0f
0P
1w
1}
1|
1_
1l
1;
1u
1V
15
1\
0t
0[
0e
19
1h
0O
13
1R
0=
1s
1Z
1r
1i
0D
1S
0>
1'
0x
1!!
0`
1t
0w
0}
1[
0_
1f
1g
1P
1Q
0r
0l
0;
1n
1=
0V
05
1X
1$
1x
0!!
1`
0i
0h
0g
1D
0n
0=
0S
0R
0Q
1>
0X
1m
0<
0t
1o
1r
1W
06
0[
1Y
1#
0'
1l
1;
0m
1<
1=
0o
0r
1V
15
0W
16
0Y
0s
0x
1"!
0u
1K
0Z
0`
0\
0#
0(
0<
1t
0=
1s
1r
1u
0K
06
1[
1Z
1\
1y
1$!
1w
1}
1a
1_
1(
0s
0r
0y
1!!
0w
0}
0Z
0a
0_
1b
1"
1y
1x
0"!
0!!
1a
0b
1`
1#
0)
0z
0y
0$!
1b
0a
0#
1)
1{
1z
0b
0"
0)
1$!
1!!
0|
0{
1)
0$!
0!!
1|
1"
1#
0$
0"
0#
1$
#330000
b100001 !
1*!
0*
1%
#340000
b100011 !
b100010 !
0*!
1)!
1*
1p
1]
0%
1v
0q
1^
1}
0|
1!!
0$
1#
#350000
b100011 !
1*!
0*
1%
#360000
b100111 !
b100101 !
b100100 !
0*!
0)!
1(!
1*
0p
0]
1G
1A
0%
0v
1q
0^
1k
0:
1U
04
0}
1|
0l
0;
0u
0V
05
0\
0!!
1<
0t
1w
1}
16
0[
1_
1$
1s
0x
1!!
1Z
0`
0#
1#
#370000
b100101 !
1*!
0*
1%
#380000
b100111 !
b100110 !
0*!
1)!
1*
1p
1]
0%
1v
0q
1^
0w
0}
0|
0_
1"!
0!!
0$
1$!
0#
1"
#390000
b100111 !
1*!
0*
1%
#400000
b101111 !
b101011 !
b101001 !
b101000 !
0*!
0)!
0(!
1'!
1*
0p
0]
0G
0A
1F
1@
1c
07
1M
01
0%
0v
1q
0^
0k
1:
0U
14
1;
15
0d
08
0N
02
1w
1}
1|
1_
0;
1u
05
1\
1t
1[
1e
09
1O
03
1!!
0t
0w
0}
0[
0_
0f
0P
1$
0!!
0F
0D
0@
0>
1#
1'
1l
1;
1n
1=
1V
15
1X
0#
0<
1t
1o
1r
06
1[
1Y
0s
1x
0"!
0u
0t
0r
0Z
1`
0\
0[
0(
0$!
1w
1}
0x
1"!
1_
0`
0"!
1!!
1y
1$!
1a
0"
0$!
0z
1b
1#
1"
1{
0"
0)
0!!
0|
0#
0$
#410000
b101001 !
1*!
0*
1%
#420000
b101011 !
b101010 !
0*!
1)!
1*
1|
1H
1C
0%
1v
0q
1^
1$
0w
0}
0_
1"!
#430000
b101011 !
1*!
0*
1%
#440000
b101111 !
b101101 !
b101100 !
0*!
0)!
1(!
1*
0|
0H
0C
1~
1j
1T
1B
0%
0v
1q
0^
1!!
1}
1k
0:
1U
04
0$
0}
0l
0;
0V
05
1#
1<
16
#450000
b101101 !
1*!
0*
1%
#460000
b101111 !
b101110 !
0*!
1)!
1*
1|
1H
1C
0%
1v
0q
1^
1$
1}
#470000
b101111 !
1*!
0*
1%
#480000
b111111 !
b110111 !
b110011 !
b110001 !
b110000 !
0*!
0)!
0(!
0'!
1&!
1*
0|
0H
0C
0~
0j
0T
0B
0c
17
0M
11
18
12
0%
0v
1q
0^
0!!
0}
0k
1:
0U
14
08
1#!
1i
02
1S
1J
1h
1L
1R
1I
0$
1w
1}
1_
0h
0L
1$!
1x
0"!
0R
0I
1`
1m
0<
0y
1W
06
0a
0#
0x
1"!
0`
0m
1<
0W
16
0n
0=
1z
0X
0b
1"
1y
1a
1n
1=
1X
0o
0{
0Y
1)
0z
1b
1o
1r
1Y
0#!
1u
1s
1!!
1|
1\
1Z
0J
1(
1{
1#!
0u
0s
0r
1z
0\
0Z
1J
0"!
0w
0}
0y
0_
0a
1#
1$
0)
0(
0!!
0|
1x
1w
1}
1y
0{
1_
1a
1`
0b
0y
0x
1"!
1!!
0z
0$!
1|
0`
1b
0a
0#
0$
1)
1z
1y
1$!
1{
1a
0b
1#
0"
1$
0)
0{
0z
0!!
0|
1b
1"
1)
1!!
1|
1{
0#
0$
0)
0!!
0|
1#
1$
0#
0$
#490000
b110001 !
1*!
0*
1%
#500000
b110011 !
b110010 !
0*!
1)!
1*
1|
1H
1C
0%
1v
0q
1^
1$
0w
0}
0_
1x
0"!
1`
0y
0a
1z
0b
0{
1)
0$!
0|
0"
0$
#510000
b110011 !
1*!
0*
1%
#520000
b110111 !
b110101 !
b110100 !
0*!
0)!
1(!
1*
0H
0C
1~
1j
1T
1B
0%
0v
1q
0^
1}
1k
0:
1U
04
0}
1|
1!!
1;
15
0!!
1$
1#
0#
#530000
b110101 !
1*!
0*
1%
#540000
b110111 !
b110110 !
0*!
1)!
1*
1H
1C
0%
1v
0q
1^
1}
0|
1!!
0$
1#
#550000
b110111 !
1*!
0*
1%
#560000
b111111 !
b111011 !
b111001 !
b111000 !
0*!
0)!
0(!
1'!
1*
0H
0C
0~
0j
0T
0B
1c
07
1M
01
0%
0v
1q
0^
0}
0k
1:
0U
14
18
0#!
0i
12
0S
0J
1w
1}
1|
1_
0!!
1l
1V
1h
1L
0x
1"!
1R
1I
0`
0"!
1!!
1$!
1$
0#
0$!
1#
1"
0"
#570000
b111001 !
1*!
0*
1%
#580000
b111011 !
b111010 !
0*!
1)!
1*
1H
1C
0%
1v
0q
1^
0w
0}
0|
0_
1"!
0!!
0$
1$!
0#
1"
#590000
b111011 !
1*!
0*
1%
#600000
b111111 !
b111101 !
b111100 !
0*!
0)!
1(!
1*
0H
0C
1~
1j
1T
1B
0%
0v
1q
0^
1}
1k
0:
1U
04
0}
1|
1!!
0l
0;
0V
05
0!!
1m
0<
1W
06
1$
1#
0n
0=
0X
0#
0o
0Y
0~
0L
0I
0B
1(
1w
1}
1y
1a
1_
0"!
1!!
0z
1b
0$!
1{
1#
0)
0!!
0|
0"
0#
0$
#610000
b111101 !
1*!
0*
1%
#620000
b111111 !
b111110 !
0*!
1)!
1*
1|
1p
1]
0%
1v
0q
1^
1$
0w
0}
0_
1"!
#630000
b111111 !
1*!
0*
1%
#640000
b11111 !
b1111 !
b111 !
b11 !
b1 !
b0 !
0*!
0)!
0(!
0'!
0&!
0%!
1*
0|
0p
0]
0j
0T
0c
17
0M
11
08
02
0e
19
0O
13
0%
0v
1q
0^
0k
1:
0U
14
1d
18
1i
1N
12
1S
0h
0R
1f
1g
1P
1Q
0$
1w
1}
1_
1u
1\
09
03
0m
1<
0W
16
0i
0g
1=
0S
0Q
0'
0"!
1!!
0w
0}
0_
1n
1s
1X
1Z
1l
1;
1r
1V
15
1"!
1o
0y
1Y
0a
0<
1t
1z
06
1[
1#
1$!
0u
0t
0s
0r
0\
0[
0Z
0b
1x
0"!
0{
1`
0(
0!!
1w
1}
0$!
0x
1"!
1_
0`
1|
1"
1)
0"!
1!!
1y
1$!
1a
0#
0"
1$
0$!
0z
1b
1#
1"
1{
0"
0)
0!!
0|
0#
0$
#650000
b1 !
1*!
0*
1%
#660000
b11 !
b10 !
0*!
1)!
1*
1|
1H
1C
0%
1v
0q
1^
1$
0w
0}
0_
1"!
#670000
b11 !
1*!
0*
1%
#680000
b111 !
b101 !
b100 !
0*!
0)!
1(!
1*
0|
0H
0C
1~
1G
1B
1A
0%
0v
1q
0^
1!!
1}
1k
0:
1U
04
0$
0}
0l
0;
0V
05
1#
1<
16
#690000
b101 !
1*!
0*
1%
#700000
b111 !
b110 !
0*!
1)!
1*
1|
1H
1C
0%
1v
0q
1^
1$
1}
#710000
b111 !
1*!
0*
1%
#720000
b1111 !
b1011 !
b1001 !
b1000 !
0*!
0)!
0(!
1'!
1*
0|
0H
0C
0~
0G
0B
0A
1#!
1J
1F
1@
1c
07
1M
01
0%
0v
1q
0^
0!!
0}
0k
1:
0U
14
1$!
1x
0"!
1`
1;
15
0d
08
0N
02
0$
1w
1}
1_
0;
05
0y
0a
19
13
0#
1"
0x
1"!
0`
1z
0b
1y
1a
0{
1)
0z
1b
1!!
1|
1{
1#
1$
0)
0!!
0|
0#
0$
#730000
b1001 !
1*!
0*
1%
#740000
b1011 !
b1010 !
0*!
1)!
1*
1|
1H
1C
0%
1v
0q
1^
1$
0w
0}
0_
1x
0"!
1`
0y
0a
1z
0b
0{
1)
0$!
0|
0"
0$
#750000
b1011 !
1*!
0*
1%
#760000
b1111 !
b1101 !
b1100 !
0*!
0)!
1(!
1*
0H
0C
1~
1G
1B
1A
0%
0v
1q
0^
1}
1k
0:
1U
04
0}
1|
1!!
1;
15
0!!
1$
1#
0#
#770000
b1101 !
1*!
0*
1%
#780000
b1111 !
b1110 !
0*!
1)!
1*
1H
1C
0%
1v
0q
1^
1}
0|
1!!
0$
1#
#790000
b1111 !
1*!
0*
1%
#800000
b11111 !
b10111 !
b10011 !
b10001 !
b10000 !
0*!
0)!
0(!
0'!
1&!
1*
0H
0C
0~
0G
0B
0A
0#!
0J
0F
0@
0c
17
0M
11
1L
1I
1E
1?
18
12
0%
0v
1q
0^
0}
0k
1:
0U
14
0x
1"!
0`
0;
05
08
02
1m
0<
1W
06
1w
1}
1|
1_
0!!
1l
1;
1V
15
1$!
0n
0=
0X
0"!
1!!
0m
1<
0W
16
0o
0Y
1$
0#
1"
0$!
1n
1=
1s
1X
1Z
1u
1t
0L
1\
1[
0I
1#
1(
1o
1r
1Y
0w
0}
1"!
0_
0"
0u
0t
0s
0r
1L
0\
0[
0Z
1I
1x
0"!
0!!
1$!
1`
0(
1w
1}
0$!
0x
1"!
1_
0`
0#
1"
0"!
1!!
1$!
0"
0$!
1#
1"
0"
#810000
b10001 !
1*!
0*
1%
#820000
b10011 !
b10010 !
0*!
1)!
1*
1H
1C
0%
1v
0q
1^
0w
0}
0|
0_
1"!
0!!
0$
1$!
0#
1"
#830000
b10011 !
1*!
0*
1%
#840000
b10111 !
b10101 !
b10100 !
0*!
0)!
1(!
1*
0H
0C
1~
1G
1B
1A
0%
0v
1q
0^
1}
1k
0:
1U
04
0}
1|
1!!
0l
0;
0V
05
0!!
1m
0<
1W
06
1$
1#
0n
0=
0X
0#
0o
0Y
0~
0L
0I
0B
1(
1w
1}
1y
1a
1_
0"!
1!!
0z
1b
0$!
1{
1#
0)
0!!
0|
0"
0#
0$
#850000
b10101 !
1*!
0*
1%
#860000
b10111 !
b10110 !
0*!
1)!
1*
1|
1p
1]
0%
1v
0q
1^
1$
0w
0}
0_
1"!
#870000
b10111 !
1*!
0*
1%
#880000
b11111 !
b11011 !
b11001 !
b11000 !
0*!
0)!
0(!
1'!
1*
0|
0p
0]
0G
0A
1F
1@
1c
07
1M
01
0%
0v
1q
0^
0k
1:
0U
14
1;
15
18
12
0$
1w
1}
1_
0;
1u
05
1\
1t
1[
1!!
0t
0w
0}
0[
0_
1$!
0$!
1#
1"
0"
#890000
b11001 !
1*!
0*
1%
#900000
b11011 !
b11010 !
0*!
1)!
1*
1|
1p
1]
0%
1v
0q
1^
1$
1}
#910000
b11011 !
1*!
0*
1%
#920000
b11111 !
b11101 !
b11100 !
0*!
0)!
1(!
1*
0|
0p
0]
1G
1A
0%
0v
1q
0^
1k
0:
1U
04
0$
0}
1;
0u
15
0\
0!!
1t
1w
1}
1[
1_
1$!
0#
1"
#930000
b11101 !
1*!
0*
1%
#940000
b11111 !
b11110 !
0*!
1)!
1*
1|
1p
1]
0%
1v
0q
1^
1$
0w
0}
0_
1x
0"!
1`
0y
0a
1z
0b
0{
1)
0$!
0|
0"
0$
#950000
b11111 !
1*!
0*
1%
#960000
b111111 !
b101111 !
b100111 !
b100011 !
b100001 !
b100000 !
0*!
0)!
0(!
0'!
0&!
1%!
1*
0p
0]
0G
0A
0F
0@
0c
17
0M
11
0E
0?
08
02
1D
1>
1e
09
1O
03
0%
0v
1q
0^
0k
1:
0U
14
0;
05
1d
18
1N
12
0m
1<
0W
16
1=
0f
0P
1w
1}
1|
1_
1l
1;
1u
1V
15
1\
0t
0[
0e
19
1h
0O
13
1R
0=
1s
1Z
1r
1i
0D
1S
0>
1'
0x
1!!
0`
1t
0w
0}
1[
0_
1f
1g
1P
1Q
0r
0l
0;
1n
1=
0V
05
1X
1$
1x
0!!
1`
0i
0h
0g
1D
0n
0=
0S
0R
0Q
1>
0X
1m
0<
0t
1o
1r
1W
06
0[
1Y
1#
0'
1l
1;
0m
1<
1=
0o
0r
1V
15
0W
16
0Y
0s
0x
1"!
0u
1K
0Z
0`
0\
0#
0(
0<
1t
0=
1s
1r
1u
0K
06
1[
1Z
1\
1y
1$!
1w
1}
1a
1_
1(
0s
0r
0y
1!!
0w
0}
0Z
0a
0_
1b
1"
1y
1x
0"!
0!!
1a
0b
1`
1#
0)
0z
0y
0$!
1b
0a
0#
1)
1{
1z
0b
0"
0)
1$!
1!!
0|
0{
1)
0$!
0!!
1|
1"
1#
0$
0"
0#
1$
#970000
b100001 !
1*!
0*
1%
#980000
b100011 !
b100010 !
0*!
1)!
1*
1p
1]
0%
1v
0q
1^
1}
0|
1!!
0$
1#
#990000
b100011 !
1*!
0*
1%
