g08_lab1/simulation/qsim/gA8_lab1.msim.vcd
$comment
	File created using the following command:
		vcd file gA8_lab1.msim.vcd -direction
$end
$date
	Sat Sep 23 21:22:44 2017
$end
$version
	ModelSim Version 10.1d
$end
$timescale
	1ps
$end
$scope module gA8_lab1_vlg_vec_tst $end
$var reg 7 ! A [6:0] $end
$var reg 7 " B [6:0] $end
$var wire 1 # AeqB $end
$var wire 1 $ sampler $end
$scope module i1 $end
$var wire 1 % gnd $end
$var wire 1 & vcc $end
$var wire 1 ' unknown $end
$var tri1 1 ( devclrn $end
$var tri1 1 ) devpor $end
$var tri1 1 * devoe $end
$var wire 1 + inst|inst6~combout $end
$var wire 1 , inst|inst7~1_combout $end
$var wire 1 - inst|inst7~2_combout $end
$var wire 1 . inst|inst7~0_combout $end
$var wire 1 / inst|inst7~3_combout $end
$var wire 1 0 B~combout [6] $end
$var wire 1 1 B~combout [5] $end
$var wire 1 2 B~combout [4] $end
$var wire 1 3 B~combout [3] $end
$var wire 1 4 B~combout [2] $end
$var wire 1 5 B~combout [1] $end
$var wire 1 6 B~combout [0] $end
$var wire 1 7 A~combout [6] $end
$var wire 1 8 A~combout [5] $end
$var wire 1 9 A~combout [4] $end
$var wire 1 : A~combout [3] $end
$var wire 1 ; A~combout [2] $end
$var wire 1 < A~combout [1] $end
$var wire 1 = A~combout [0] $end
$upscope $end
$upscope $end
$enddefinitions $end
#0
$dumpvars
b0 !
b0 "
1#
x$
0%
1&
x'
1(
1)
1*
0+
1,
1-
1.
1/
06
05
04
03
02
01
00
0=
0<
0;
0:
09
08
07
$end
#4000
b1 !
1=
0$
1+
0/
0#
#8000
b11 !
b10 !
0=
1<
1$
0+
0-
#12000
b11 !
1=
0$
1+
#16000
b111 !
b101 !
b100 !
0=
0<
1;
1$
0+
#20000
b101 !
1=
0$
1+
#24000
b111 !
b110 !
0=
1<
1$
0+
#28000
b111 !
1=
0$
1+
#32000
b1111 !
b1011 !
b1001 !
b1000 !
0=
0<
0;
1:
1$
0+
1-
0,
#36000
b1001 !
1=
0$
1+
#40000
b1011 !
b1010 !
0=
1<
1$
0+
0-
#44000
b1011 !
1=
0$
1+
#48000
b1111 !
b1101 !
b1100 !
0=
0<
1;
1$
0+
#52000
b1101 !
1=
0$
1+
#56000
b1111 !
b1110 !
0=
1<
1$
0+
#60000
b1111 !
1=
0$
1+
#64000
b11111 !
b10111 !
b10011 !
b10001 !
b10000 !
0=
0<
0;
0:
19
1$
0+
1-
#68000
b10001 !
1=
0$
1+
#72000
b10011 !
b10010 !
0=
1<
1$
0+
0-
#76000
b10011 !
1=
0$
1+
#80000
b10111 !
b10101 !
b10100 !
0=
0<
1;
1$
0+
#84000
b10101 !
1=
0$
1+
#88000
b10111 !
b10110 !
0=
1<
1$
0+
#92000
b10111 !
1=
0$
1+
#96000
b11111 !
b11011 !
b11001 !
b11000 !
0=
0<
0;
1:
1$
0+
1-
#100000
b11001 !
1=
0$
1+
#104000
b11011 !
b11010 !
0=
1<
1$
0+
0-
#108000
b11011 !
1=
0$
1+
#112000
b11111 !
b11101 !
b11100 !
0=
0<
1;
1$
0+
#116000
b11101 !
1=
0$
1+
#120000
b11111 !
b11110 !
0=
1<
1$
0+
#124000
b11111 !
1=
0$
1+
#128000
b111111 !
b101111 !
b100111 !
b100011 !
b100001 !
b100000 !
0=
0<
0;
0:
09
18
1$
0+
1-
1,
0.
#132000
b100001 !
1=
0$
1+
#136000
b100011 !
b100010 !
0=
1<
1$
0+
0-
#140000
b100011 !
1=
0$
1+
#144000
b100111 !
b100101 !
b100100 !
0=
0<
1;
1$
0+
#148000
b100101 !
1=
0$
1+
#152000
b100111 !
b100110 !
0=
1<
1$
0+
#156000
b100111 !
1=
0$
1+
#160000
b101111 !
b101011 !
b101001 !
b101000 !
0=
0<
0;
1:
1$
0+
1-
0,
#164000
b101001 !
1=
0$
1+
#168000
b101011 !
b101010 !
0=
1<
1$
0+
0-
#172000
b101011 !
1=
0$
1+
#176000
b101111 !
b101101 !
b101100 !
0=
0<
1;
1$
0+
#180000
b101101 !
1=
0$
1+
#184000
b101111 !
b101110 !
0=
1<
1$
0+
#188000
b101111 !
1=
0$
1+
#192000
b111111 !
b110111 !
b110011 !
b110001 !
b110000 !
0=
0<
0;
0:
19
1$
0+
1-
#196000
b110001 !
1=
0$
1+
#200000
b110011 !
b110010 !
0=
1<
1$
0+
0-
#204000
b110011 !
1=
0$
1+
#208000
b110111 !
b110101 !
b110100 !
0=
0<
1;
1$
0+
#212000
b110101 !
1=
0$
1+
#216000
b110111 !
b110110 !
0=
1<
1$
0+
#220000
b110111 !
1=
0$
1+
#224000
b111111 !
b111011 !
b111001 !
b111000 !
0=
0<
0;
1:
1$
0+
1-
#228000
b111001 !
1=
0$
1+
#232000
b111011 !
b111010 !
0=
1<
1$
0+
0-
#236000
b111011 !
1=
0$
1+
#240000
b111111 !
b111101 !
b111100 !
0=
0<
1;
1$
0+
#244000
b111101 !
1=
0$
1+
#248000
b111111 !
b111110 !
0=
1<
1$
0+
#252000
b111111 !
1=
0$
1+
#256000
b1111111 !
b1011111 !
b1001111 !
b1000111 !
b1000011 !
b1000001 !
b1000000 !
0=
0<
0;
0:
09
08
17
1$
0+
1-
1,
#260000
b1000001 !
1=
0$
1+
#264000
b1000011 !
b1000010 !
0=
1<
1$
0+
0-
#268000
b1000011 !
1=
0$
1+
#272000
b1000111 !
b1000101 !
b1000100 !
0=
0<
1;
1$
0+
#276000
b1000101 !
1=
0$
1+
#280000
b1000111 !
b1000110 !
0=
1<
1$
0+
#284000
b1000111 !
1=
0$
1+
#288000
b1001111 !
b1001011 !
b1001001 !
b1001000 !
0=
0<
0;
1:
1$
0+
1-
0,
#292000
b1001001 !
1=
0$
1+
#296000
b1001011 !
b1001010 !
0=
1<
1$
0+
0-
#300000
b1001011 !
1=
0$
1+
#304000
b1001111 !
b1001101 !
b1001100 !
0=
0<
1;
1$
0+
#308000
b1001101 !
1=
0$
1+
#312000
b1001111 !
b1001110 !
0=
1<
1$
0+
#316000
b1001111 !
1=
0$
1+
#320000
b1011111 !
b1010111 !
b1010011 !
b1010001 !
b1010000 !
0=
0<
0;
0:
19
1$
0+
1-
#324000
b1010001 !
1=
0$
1+
#328000
b1010011 !
b1010010 !
0=
1<
1$
0+
0-
#332000
b1010011 !
1=
0$
1+
#336000
b1010111 !
b1010101 !
b1010100 !
0=
0<
1;
1$
0+
#340000
b1010101 !
1=
0$
1+
#344000
b1010111 !
b1010110 !
0=
1<
1$
0+
#348000
b1010111 !
1=
0$
1+
#352000
b1011111 !
b1011011 !
b1011001 !
b1011000 !
0=
0<
0;
1:
1$
0+
1-
#356000
b1011001 !
1=
0$
1+
#360000
b1011011 !
b1011010 !
0=
1<
1$
0+
0-
#364000
b1011011 !
1=
0$
1+
#368000
b1011111 !
b1011101 !
b1011100 !
0=
0<
1;
1$
0+
#372000
b1011101 !
1=
0$
1+
#376000
b1011111 !
b1011110 !
0=
1<
1$
0+
#380000
b1011111 !
1=
0$
1+
#384000
b1111111 !
b1101111 !
b1100111 !
b1100011 !
b1100001 !
b1100000 !
0=
0<
0;
0:
09
18
1$
0+
1-
1,
#388000
b1100001 !
1=
0$
1+
#392000
b1100011 !
b1100010 !
0=
1<
1$
0+
0-
#396000
b1100011 !
1=
0$
1+
#400000
b1100111 !
b1100101 !
b1100100 !
0=
0<
1;
1$
0+
#404000
b1100101 !
1=
0$
1+
#408000
b1100111 !
b1100110 !
0=
1<
1$
0+
#412000
b1100111 !
1=
0$
1+
#416000
b1101111 !
b1101011 !
b1101001 !
b1101000 !
0=
0<
0;
1:
1$
0+
1-
0,
#420000
b1101001 !
1=
0$
1+
#424000
b1101011 !
b1101010 !
0=
1<
1$
0+
0-
#428000
b1101011 !
1=
0$
1+
#432000
b1101111 !
b1101101 !
b1101100 !
0=
0<
1;
1$
0+
#436000
b1101101 !
1=
0$
1+
#440000
b1101111 !
b1101110 !
0=
1<
1$
0+
#444000
b1101111 !
1=
0$
1+
#448000
b1111111 !
b1110111 !
b1110011 !
b1110001 !
b1110000 !
0=
0<
0;
0:
19
1$
0+
1-
#452000
b1110001 !
1=
0$
1+
#456000
b1110011 !
b1110010 !
0=
1<
1$
0+
0-
#460000
b1110011 !
1=
0$
1+
#464000
b1110111 !
b1110101 !
b1110100 !
0=
0<
1;
1$
0+
#468000
b1110101 !
1=
0$
1+
#472000
b1110111 !
b1110110 !
0=
1<
1$
0+
#476000
b1110111 !
1=
0$
1+
#480000
b1111111 !
b1111011 !
b1111001 !
b1111000 !
0=
0<
0;
1:
1$
0+
1-
#484000
b1111001 !
1=
0$
1+
#488000
b1111011 !
b1111010 !
0=
1<
1$
0+
0-
#492000
b1111011 !
1=
0$
1+
#496000
b1111111 !
b1111101 !
b1111100 !
0=
0<
1;
1$
0+
#500000
b1111101 !
1=
0$
1+
#504000
b1111111 !
b1111110 !
0=
1<
1$
0+
#508000
b1111111 !
1=
0$
1+
#512000
b1 "
b111111 !
b11111 !
b1111 !
b111 !
b11 !
b1 !
b0 !
0=
0<
0;
0:
09
08
07
16
1$
1-
1,
1.
#516000
b1 !
1=
0$
0+
1/
1#
#520000
b11 !
b10 !
0=
1<
1$
1+
0-
0/
0#
#524000
b11 !
1=
0$
0+
#528000
b111 !
b101 !
b100 !
0=
0<
1;
1$
1+
#532000
b101 !
1=
0$
0+
#536000
b111 !
b110 !
0=
1<
1$
1+
#540000
b111 !
1=
0$
0+
#544000
b1111 !
b1011 !
b1001 !
b1000 !
0=
0<
0;
1:
1$
1+
1-
0,
#548000
b1001 !
1=
0$
0+
#552000
b1011 !
b1010 !
0=
1<
1$
1+
0-
#556000
b1011 !
1=
0$
0+
#560000
b1111 !
b1101 !
b1100 !
0=
0<
1;
1$
1+
#564000
b1101 !
1=
0$
0+
#568000
b1111 !
b1110 !
0=
1<
1$
1+
#572000
b1111 !
1=
0$
0+
#576000
b11111 !
b10111 !
b10011 !
b10001 !
b10000 !
0=
0<
0;
0:
19
1$
1+
1-
#580000
b10001 !
1=
0$
0+
#584000
b10011 !
b10010 !
0=
1<
1$
1+
0-
#588000
b10011 !
1=
0$
0+
#592000
b10111 !
b10101 !
b10100 !
0=
0<
1;
1$
1+
#596000
b10101 !
1=
0$
0+
#600000
b10111 !
b10110 !
0=
1<
1$
1+
#604000
b10111 !
1=
0$
0+
#608000
b11111 !
b11011 !
b11001 !
b11000 !
0=
0<
0;
1:
1$
1+
1-
#612000
b11001 !
1=
0$
0+
#616000
b11011 !
b11010 !
0=
1<
1$
1+
0-
#620000
b11011 !
1=
0$
0+
#624000
b11111 !
b11101 !
b11100 !
0=
0<
1;
1$
1+
#628000
b11101 !
1=
0$
0+
#632000
b11111 !
b11110 !
0=
1<
1$
1+
#636000
b11111 !
1=
0$
0+
#640000
b111111 !
b101111 !
b100111 !
b100011 !
b100001 !
b100000 !
0=
0<
0;
0:
09
18
1$
1+
1-
1,
0.
#644000
b100001 !
1=
0$
0+
#648000
b100011 !
b100010 !
0=
1<
1$
1+
0-
#652000
b100011 !
1=
0$
0+
#656000
b100111 !
b100101 !
b100100 !
0=
0<
1;
1$
1+
#660000
b100101 !
1=
0$
0+
#664000
b100111 !
b100110 !
0=
1<
1$
1+
#668000
b100111 !
1=
0$
0+
#672000
b101111 !
b101011 !
b101001 !
b101000 !
0=
0<
0;
1:
1$
1+
1-
0,
#676000
b101001 !
1=
0$
0+
#680000
b101011 !
b101010 !
0=
1<
1$
1+
0-
#684000
b101011 !
1=
0$
0+
#688000
b101111 !
b101101 !
b101100 !
0=
0<
1;
1$
1+
#692000
b101101 !
1=
0$
0+
#696000
b101111 !
b101110 !
0=
1<
1$
1+
#700000
b101111 !
1=
0$
0+
#704000
b111111 !
b110111 !
b110011 !
b110001 !
b110000 !
0=
0<
0;
0:
19
1$
1+
1-
#708000
b110001 !
1=
0$
0+
#712000
b110011 !
b110010 !
0=
1<
1$
1+
0-
#716000
b110011 !
1=
0$
0+
#720000
b110111 !
b110101 !
b110100 !
0=
0<
1;
1$
1+
#724000
b110101 !
1=
0$
0+
#728000
b110111 !
b110110 !
0=
1<
1$
1+
#732000
b110111 !
1=
0$
0+
#736000
b111111 !
b111011 !
b111001 !
b111000 !
0=
0<
0;
1:
1$
1+
1-
#740000
b111001 !
1=
0$
0+
#744000
b111011 !
b111010 !
0=
1<
1$
1+
0-
#748000
b111011 !
1=
0$
0+
#752000
b111111 !
b111101 !
b111100 !
0=
0<
1;
1$
1+
#756000
b111101 !
1=
0$
0+
#760000
b111111 !
b111110 !
0=
1<
1$
1+
#764000
b111111 !
1=
0$
0+
#768000
b1111111 !
b1011111 !
b1001111 !
b1000111 !
b1000011 !
b1000001 !
b1000000 !
0=
0<
0;
0:
09
08
17
1$
1+
1-
1,
#772000
b1000001 !
1=
0$
0+
#776000
b1000011 !
b1000010 !
0=
1<
1$
1+
0-
#780000
b1000011 !
1=
0$
0+
#784000
b1000111 !
b1000101 !
b1000100 !
0=
0<
1;
1$
1+
#788000
b1000101 !
1=
0$
0+
#792000
b1000111 !
b1000110 !
0=
1<
1$
1+
#796000
b1000111 !
1=
0$
0+
#800000
b1001111 !
b1001011 !
b1001001 !
b1001000 !
0=
0<
0;
1:
1$
1+
1-
0,
#804000
b1001001 !
1=
0$
0+
#808000
b1001011 !
b1001010 !
0=
1<
1$
1+
0-
#812000
b1001011 !
1=
0$
0+
#816000
b1001111 !
b1001101 !
b1001100 !
0=
0<
1;
1$
1+
#820000
b1001101 !
1=
0$
0+
#824000
b1001111 !
b1001110 !
0=
1<
1$
1+
#828000
b1001111 !
1=
0$
0+
#832000
b1011111 !
b1010111 !
b1010011 !
b1010001 !
b1010000 !
0=
0<
0;
0:
19
1$
1+
1-
#836000
b1010001 !
1=
0$
0+
#840000
b1010011 !
b1010010 !
0=
1<
1$
1+
0-
#844000
b1010011 !
1=
0$
0+
#848000
b1010111 !
b1010101 !
b1010100 !
0=
0<
1;
1$
1+
#852000
b1010101 !
1=
0$
0+
#856000
b1010111 !
b1010110 !
0=
1<
1$
1+
#860000
b1010111 !
1=
0$
0+
#864000
b1011111 !
b1011011 !
b1011001 !
b1011000 !
0=
0<
0;
1:
1$
1+
1-
#868000
b1011001 !
1=
0$
0+
#872000
b1011011 !
b1011010 !
0=
1<
1$
1+
0-
#876000
b1011011 !
1=
0$
0+
#880000
b1011111 !
b1011101 !
b1011100 !
0=
0<
1;
1$
1+
#884000
b1011101 !
1=
0$
0+
#888000
b1011111 !
b1011110 !
0=
1<
1$
1+
#892000
b1011111 !
1=
0$
0+
#896000
b1111111 !
b1101111 !
b1100111 !
b1100011 !
b1100001 !
b1100000 !
0=
0<
0;
0:
09
18
1$
1+
1-
1,
#900000
b1100001 !
1=
0$
0+
#904000
b1100011 !
b1100010 !
0=
1<
1$
1+
0-
#908000
b1100011 !
1=
0$
0+
#912000
b1100111 !
b1100101 !
b1100100 !
0=
0<
1;
1$
1+
#916000
b1100101 !
1=
0$
0+
#920000
b1100111 !
b1100110 !
0=
1<
1$
1+
#924000
b1100111 !
1=
0$
0+
#928000
b1101111 !
b1101011 !
b1101001 !
b1101000 !
0=
0<
0;
1:
1$
1+
1-
0,
#932000
b1101001 !
1=
0$
0+
#936000
b1101011 !
b1101010 !
0=
1<
1$
1+
0-
#940000
b1101011 !
1=
0$
0+
#944000
b1101111 !
b1101101 !
b1101100 !
0=
0<
1;
1$
1+
#948000
b1101101 !
1=
0$
0+
#952000
b1101111 !
b1101110 !
0=
1<
1$
1+
#956000
b1101111 !
1=
0$
0+
#960000
b1111111 !
b1110111 !
b1110011 !
b1110001 !
b1110000 !
0=
0<
0;
0:
19
1$
1+
1-
#964000
b1110001 !
1=
0$
0+
#968000
b1110011 !
b1110010 !
0=
1<
1$
1+
0-
#972000
b1110011 !
1=
0$
0+
#976000
b1110111 !
b1110101 !
b1110100 !
0=
0<
1;
1$
1+
#980000
b1110101 !
1=
0$
0+
#984000
b1110111 !
b1110110 !
0=
1<
1$
1+
#988000
b1110111 !
1=
0$
0+
#992000
b1111111 !
b1111011 !
b1111001 !
b1111000 !
0=
0<
0;
1:
1$
1+
1-
#996000
b1111001 !
1=
0$
0+
#1000000
b1111011 !
b1111010 !
0=
1<
1$
1+
0-
#1004000
b1111011 !
1=
0$
0+
#1008000
b1111111 !
b1111101 !
b1111100 !
0=
0<
1;
1$
1+
#1012000
b1111101 !
1=
0$
0+
#1016000
b1111111 !
b1111110 !
0=
1<
1$
1+
#1020000
b1111111 !
1=
0$
0+
#1024000
b11 "
b10 "
b111111 !
b11111 !
b1111 !
b111 !
b11 !
b1 !
b0 !
0=
0<
0;
0:
09
08
07
06
15
1$
1,
1.
#1028000
b1 !
1=
0$
1+
#1032000
b11 !
b10 !
0=
1<
1$
0+
1-
1/
1#
#1036000
b11 !
1=
0$
1+
0/
0#
#1040000
b111 !
b101 !
b100 !
0=
0<
1;
1$
0+
0-
#1044000
b101 !
1=
0$
1+
#1048000
b111 !
b110 !
0=
1<
1$
0+
#1052000
b111 !
1=
0$
1+
#1056000
b1111 !
b1011 !
b1001 !
b1000 !
0=
0<
0;
1:
1$
0+
0,
#1060000
b1001 !
1=
0$
1+
#1064000
b1011 !
b1010 !
0=
1<
1$
0+
1-
#1068000
b1011 !
1=
0$
1+
#1072000
b1111 !
b1101 !
b1100 !
0=
0<
1;
1$
0+
0-
#1076000
b1101 !
1=
0$
1+
#1080000
b1111 !
b1110 !
0=
1<
1$
0+
#1084000
b1111 !
1=
0$
1+
#1088000
b11111 !
b10111 !
b10011 !
b10001 !
b10000 !
0=
0<
0;
0:
19
1$
0+
#1092000
b10001 !
1=
0$
1+
#1096000
b10011 !
b10010 !
0=
1<
1$
0+
1-
#1100000
b10011 !
1=
0$
1+
#1104000
b10111 !
b10101 !
b10100 !
0=
0<
1;
1$
0+
0-
#1108000
b10101 !
1=
0$
1+
#1112000
b10111 !
b10110 !
0=
1<
1$
0+
#1116000
b10111 !
1=
0$
1+
#1120000
b11111 !
b11011 !
b11001 !
b11000 !
0=
0<
0;
1:
1$
0+
#1124000
b11001 !
1=
0$
1+
#1128000
b11011 !
b11010 !
0=
1<
1$
0+
1-
#1132000
b11011 !
1=
0$
1+
#1136000
b11111 !
b11101 !
b11100 !
0=
0<
1;
1$
0+
0-
#1140000
b11101 !
1=
0$
1+
#1144000
b11111 !
b11110 !
0=
1<
1$
0+
#1148000
b11111 !
1=
0$
1+
#1152000
b111111 !
b101111 !
b100111 !
b100011 !
b100001 !
b100000 !
0=
0<
0;
0:
09
18
1$
0+
1,
0.
#1156000
b100001 !
1=
0$
1+
#1160000
b100011 !
b100010 !
0=
1<
1$
0+
1-
#1164000
b100011 !
1=
0$
1+
#1168000
b100111 !
b100101 !
b100100 !
0=
0<
1;
1$
0+
0-
#1172000
b100101 !
1=
0$
1+
#1176000
b100111 !
b100110 !
0=
1<
1$
0+
#1180000
b100111 !
1=
0$
1+
#1184000
b101111 !
b101011 !
b101001 !
b101000 !
0=
0<
0;
1:
1$
0+
0,
#1188000
b101001 !
1=
0$
1+
#1192000
b101011 !
b101010 !
0=
1<
1$
0+
1-
#1196000
b101011 !
1=
0$
1+
#1200000
b101111 !
b101101 !
b101100 !
0=
0<
1;
1$
0+
0-
#1204000
b101101 !
1=
0$
1+
#1208000
b101111 !
b101110 !
0=
1<
1$
0+
#1212000
b101111 !
1=
0$
1+
#1216000
b111111 !
b110111 !
b110011 !
b110001 !
b110000 !
0=
0<
0;
0:
19
1$
0+
#1220000
b110001 !
1=
0$
1+
#1224000
b110011 !
b110010 !
0=
1<
1$
0+
1-
#1228000
b110011 !
1=
0$
1+
#1232000
b110111 !
b110101 !
b110100 !
0=
0<
1;
1$
0+
0-
#1236000
b110101 !
1=
0$
1+
#1240000
b110111 !
b110110 !
0=
1<
1$
0+
#1244000
b110111 !
1=
0$
1+
#1248000
b111111 !
b111011 !
b111001 !
b111000 !
0=
0<
0;
1:
1$
0+
#1252000
b111001 !
1=
0$
1+
#1256000
b111011 !
b111010 !
0=
1<
1$
0+
1-
#1260000
b111011 !
1=
0$
1+
#1264000
b111111 !
b111101 !
b111100 !
0=
0<
1;
1$
0+
0-
#1268000
b111101 !
1=
0$
1+
#1272000
b111111 !
b111110 !
0=
1<
1$
0+
#1276000
b111111 !
1=
0$
1+
#1280000
b1111111 !
b1011111 !
b1001111 !
b1000111 !
b1000011 !
b1000001 !
b1000000 !
0=
0<
0;
0:
09
08
17
1$
0+
1,
#1284000
b1000001 !
1=
0$
1+
#1288000
b1000011 !
b1000010 !
0=
1<
1$
0+
1-
#1292000
b1000011 !
1=
0$
1+
#1296000
b1000111 !
b1000101 !
b1000100 !
0=
0<
1;
1$
0+
0-
#1300000
b1000101 !
1=
0$
1+
#1304000
b1000111 !
b1000110 !
0=
1<
1$
0+
#1308000
b1000111 !
1=
0$
1+
#1312000
b1001111 !
b1001011 !
b1001001 !
b1001000 !
0=
0<
0;
1:
1$
0+
0,
#1316000
b1001001 !
1=
0$
1+
#1320000
b1001011 !
b1001010 !
0=
1<
1$
0+
1-
#1324000
b1001011 !
1=
0$
1+
#1328000
b1001111 !
b1001101 !
b1001100 !
0=
0<
1;
1$
0+
0-
#1332000
b1001101 !
1=
0$
1+
#1336000
b1001111 !
b1001110 !
0=
1<
1$
0+
#1340000
b1001111 !
1=
0$
1+
#1344000
b1011111 !
b1010111 !
b1010011 !
b1010001 !
b1010000 !
0=
0<
0;
0:
19
1$
0+
#1348000
b1010001 !
1=
0$
1+
#1352000
b1010011 !
b1010010 !
0=
1<
1$
0+
1-
#1356000
b1010011 !
1=
0$
1+
#1360000
b1010111 !
b1010101 !
b1010100 !
0=
0<
1;
1$
0+
0-
#1364000
b1010101 !
1=
0$
1+
#1368000
b1010111 !
b1010110 !
0=
1<
1$
0+
#1372000
b1010111 !
1=
0$
1+
#1376000
b1011111 !
b1011011 !
b1011001 !
b1011000 !
0=
0<
0;
1:
1$
0+
#1380000
b1011001 !
1=
0$
1+
#1384000
b1011011 !
b1011010 !
0=
1<
1$
0+
1-
#1388000
b1011011 !
1=
0$
1+
#1392000
b1011111 !
b1011101 !
b1011100 !
0=
0<
1;
1$
0+
0-
#1396000
b1011101 !
1=
0$
1+
#1400000
b1011111 !
b1011110 !
0=
1<
1$
0+
#1404000
b1011111 !
1=
0$
1+
#1408000
b1111111 !
b1101111 !
b1100111 !
b1100011 !
b1100001 !
b1100000 !
0=
0<
0;
0:
09
18
1$
0+
1,
#1412000
b1100001 !
1=
0$
1+
#1416000
b1100011 !
b1100010 !
0=
1<
1$
0+
1-
#1420000
b1100011 !
1=
0$
1+
#1424000
b1100111 !
b1100101 !
b1100100 !
0=
0<
1;
1$
0+
0-
#1428000
b1100101 !
1=
0$
1+
#1432000
b1100111 !
b1100110 !
0=
1<
1$
0+
#1436000
b1100111 !
1=
0$
1+
#1440000
b1101111 !
b1101011 !
b1101001 !
b1101000 !
0=
0<
0;
1:
1$
0+
0,
#1444000
b1101001 !
1=
0$
1+
#1448000
b1101011 !
b1101010 !
0=
1<
1$
0+
1-
#1452000
b1101011 !
1=
0$
1+
#1456000
b1101111 !
b1101101 !
b1101100 !
0=
0<
1;
1$
0+
0-
#1460000
b1101101 !
1=
0$
1+
#1464000
b1101111 !
b1101110 !
0=
1<
1$
0+
#1468000
b1101111 !
1=
0$
1+
#1472000
b1111111 !
b1110111 !
b1110011 !
b1110001 !
b1110000 !
0=
0<
0;
0:
19
1$
0+
#1476000
b1110001 !
1=
0$
1+
#1480000
b1110011 !
b1110010 !
0=
1<
1$
0+
1-
#1484000
b1110011 !
1=
0$
1+
#1488000
b1110111 !
b1110101 !
b1110100 !
0=
0<
1;
1$
0+
0-
#1492000
b1110101 !
1=
0$
1+
#1496000
b1110111 !
b1110110 !
0=
1<
1$
0+
#1500000
b1110111 !
1=
0$
1+
#1504000
b1111111 !
b1111011 !
b1111001 !
b1111000 !
0=
0<
0;
1:
1$
0+
#1508000
b1111001 !
1=
0$
1+
#1512000
b1111011 !
b1111010 !
0=
1<
1$
0+
1-
#1516000
b1111011 !
1=
0$
1+
#1520000
b1111111 !
b1111101 !
b1111100 !
0=
0<
1;
1$
0+
0-
#1524000
b1111101 !
1=
0$
1+
#1528000
b1111111 !
b1111110 !
0=
1<
1$
0+
#1532000
b1111111 !
1=
0$
1+
#1536000
b11 "
b111111 !
b11111 !
b1111 !
b111 !
b11 !
b1 !
b0 !
0=
0<
0;
0:
09
08
07
16
1$
1,
1.
#1540000
b1 !
1=
0$
0+
#1544000
b11 !
b10 !
0=
1<
1$
1+
1-
#1548000
b11 !
1=
0$
0+
1/
1#
#1552000
b111 !
b101 !
b100 !
0=
0<
1;
1$
1+
0-
0/
0#
#1556000
b101 !
1=
0$
0+
#1560000
b111 !
b110 !
0=
1<
1$
1+
#1564000
b111 !
1=
0$
0+
#1568000
b1111 !
b1011 !
b1001 !
b1000 !
0=
0<
0;
1:
1$
1+
0,
#1572000
b1001 !
1=
0$
0+
#1576000
b1011 !
b1010 !
0=
1<
1$
1+
1-
#1580000
b1011 !
1=
0$
0+
#1584000
b1111 !
b1101 !
b1100 !
0=
0<
1;
1$
1+
0-
#1588000
b1101 !
1=
0$
0+
#1592000
b1111 !
b1110 !
0=
1<
1$
1+
#1596000
b1111 !
1=
0$
0+
#1600000
b11111 !
b10111 !
b10011 !
b10001 !
b10000 !
0=
0<
0;
0:
19
1$
1+
#1604000
b10001 !
1=
0$
0+
#1608000
b10011 !
b10010 !
0=
1<
1$
1+
1-
#1612000
b10011 !
1=
0$
0+
#1616000
b10111 !
b10101 !
b10100 !
0=
0<
1;
1$
1+
0-
#1620000
b10101 !
1=
0$
0+
#1624000
b10111 !
b10110 !
0=
1<
1$
1+
#1628000
b10111 !
1=
0$
0+
#1632000
b11111 !
b11011 !
b11001 !
b11000 !
0=
0<
0;
1:
1$
1+
#1636000
b11001 !
1=
0$
0+
#1640000
b11011 !
b11010 !
0=
1<
1$
1+
1-
#1644000
b11011 !
1=
0$
0+
#1648000
b11111 !
b11101 !
b11100 !
0=
0<
1;
1$
1+
0-
#1652000
b11101 !
1=
0$
0+
#1656000
b11111 !
b11110 !
0=
1<
1$
1+
#1660000
b11111 !
1=
0$
0+
#1664000
b111111 !
b101111 !
b100111 !
b100011 !
b100001 !
b100000 !
0=
0<
0;
0:
09
18
1$
1+
1,
0.
#1668000
b100001 !
1=
0$
0+
#1672000
b100011 !
b100010 !
0=
1<
1$
1+
1-
#1676000
b100011 !
1=
0$
0+
#1680000
b100111 !
b100101 !
b100100 !
0=
0<
1;
1$
1+
0-
#1684000
b100101 !
1=
0$
0+
#1688000
b100111 !
b100110 !
0=
1<
1$
1+
#1692000
b100111 !
1=
0$
0+
#1696000
b101111 !
b101011 !
b101001 !
b101000 !
0=
0<
0;
1:
1$
1+
0,
#1700000
b101001 !
1=
0$
0+
#1704000
b101011 !
b101010 !
0=
1<
1$
1+
1-
#1708000
b101011 !
1=
0$
0+
#1712000
b101111 !
b101101 !
b101100 !
0=
0<
1;
1$
1+
0-
#1716000
b101101 !
1=
0$
0+
#1720000
b101111 !
b101110 !
0=
1<
1$
1+
#1724000
b101111 !
1=
0$
0+
#1728000
b111111 !
b110111 !
b110011 !
b110001 !
b110000 !
0=
0<
0;
0:
19
1$
1+
#1732000
b110001 !
1=
0$
0+
#1736000
b110011 !
b110010 !
0=
1<
1$
1+
1-
#1740000
b110011 !
1=
0$
0+
#1744000
b110111 !
b110101 !
b110100 !
0=
0<
1;
1$
1+
0-
#1748000
b110101 !
1=
0$
0+
#1752000
b110111 !
b110110 !
0=
1<
1$
1+
#1756000
b110111 !
1=
0$
0+
#1760000
b111111 !
b111011 !
b111001 !
b111000 !
0=
0<
0;
1:
1$
1+
#1764000
b111001 !
1=
0$
0+
#1768000
b111011 !
b111010 !
0=
1<
1$
1+
1-
#1772000
b111011 !
1=
0$
0+
#1776000
b111111 !
b111101 !
b111100 !
0=
0<
1;
1$
1+
0-
#1780000
b111101 !
1=
0$
0+
#1784000
b111111 !
b111110 !
0=
1<
1$
1+
#1788000
b111111 !
1=
0$
0+
#1792000
b1111111 !
b1011111 !
b1001111 !
b1000111 !
b1000011 !
b1000001 !
b1000000 !
0=
0<
0;
0:
09
08
17
1$
1+
1,
#1796000
b1000001 !
1=
0$
0+
#1800000
b1000011 !
b1000010 !
0=
1<
1$
1+
1-
#1804000
b1000011 !
1=
0$
0+
#1808000
b1000111 !
b1000101 !
b1000100 !
0=
0<
1;
1$
1+
0-
#1812000
b1000101 !
1=
0$
0+
#1816000
b1000111 !
b1000110 !
0=
1<
1$
1+
#1820000
b1000111 !
1=
0$
0+
#1824000
b1001111 !
b1001011 !
b1001001 !
b1001000 !
0=
0<
0;
1:
1$
1+
0,
#1828000
b1001001 !
1=
0$
0+
#1832000
b1001011 !
b1001010 !
0=
1<
1$
1+
1-
#1836000
b1001011 !
1=
0$
0+
#1840000
b1001111 !
b1001101 !
b1001100 !
0=
0<
1;
1$
1+
0-
#1844000
b1001101 !
1=
0$
0+
#1848000
b1001111 !
b1001110 !
0=
1<
1$
1+
#1852000
b1001111 !
1=
0$
0+
#1856000
b1011111 !
b1010111 !
b1010011 !
b1010001 !
b1010000 !
0=
0<
0;
0:
19
1$
1+
#1860000
b1010001 !
1=
0$
0+
#1864000
b1010011 !
b1010010 !
0=
1<
1$
1+
1-
#1868000
b1010011 !
1=
0$
0+
#1872000
b1010111 !
b1010101 !
b1010100 !
0=
0<
1;
1$
1+
0-
#1876000
b1010101 !
1=
0$
0+
#1880000
b1010111 !
b1010110 !
0=
1<
1$
1+
#1884000
b1010111 !
1=
0$
0+
