g08_lab1/simulation/qsim/gA8_lab1.msim.vcd
$comment
	File created using the following command:
		vcd file gA8_lab1.msim.vcd -direction
$end
$date
	Mon Oct 02 14:14:30 2017
$end
$version
	ModelSim Version 10.1d
$end
$timescale
	1ps
$end
$scope module gA8_comp7_vlg_vec_tst $end
$var reg 7 ! A [6:0] $end
$var reg 7 " B [6:0] $end
$var wire 1 # AeqB $end
$var wire 1 $ sampler $end
$scope module i1 $end
$var wire 1 % gnd $end
$var wire 1 & vcc $end
$var wire 1 ' unknown $end
$var tri1 1 ( devclrn $end
$var tri1 1 ) devpor $end
$var tri1 1 * devoe $end
$var wire 1 + inst6~combout $end
$var wire 1 , inst7~1_combout $end
$var wire 1 - inst7~2_combout $end
$var wire 1 . inst7~0_combout $end
$var wire 1 / inst7~3_combout $end
$var wire 1 0 B~combout [6] $end
$var wire 1 1 B~combout [5] $end
$var wire 1 2 B~combout [4] $end
$var wire 1 3 B~combout [3] $end
$var wire 1 4 B~combout [2] $end
$var wire 1 5 B~combout [1] $end
$var wire 1 6 B~combout [0] $end
$var wire 1 7 A~combout [6] $end
$var wire 1 8 A~combout [5] $end
$var wire 1 9 A~combout [4] $end
$var wire 1 : A~combout [3] $end
$var wire 1 ; A~combout [2] $end
$var wire 1 < A~combout [1] $end
$var wire 1 = A~combout [0] $end
$upscope $end
$upscope $end
$enddefinitions $end
#0
$dumpvars
b0 !
b0 "
1#
x$
0%
1&
x'
1(
1)
1*
0+
1,
1-
1.
1/
06
05
04
03
02
01
00
0=
0<
0;
0:
09
08
07
$end
#6000
b1 !
1=
0$
1+
0/
0#
#12000
b11 !
b10 !
0=
1<
1$
0+
0-
#18000
b11 !
1=
0$
1+
#24000
b111 !
b101 !
b100 !
0=
0<
1;
1$
0+
#30000
b101 !
1=
0$
1+
#36000
b111 !
b110 !
0=
1<
1$
0+
#42000
b1 "
b111 !
1=
16
0$
#48000
b1111 !
b1011 !
b1001 !
b1000 !
0=
0<
0;
1:
1$
1+
1-
0,
#54000
b1001 !
1=
0$
0+
#60000
b1011 !
b1010 !
0=
1<
1$
1+
0-
#66000
b1011 !
1=
0$
0+
#72000
b1111 !
b1101 !
b1100 !
0=
0<
1;
1$
1+
#78000
b1101 !
1=
0$
0+
#84000
b11 "
b10 "
b1111 !
b1110 !
0=
1<
06
15
1$
#90000
b1111 !
1=
0$
1+
#96000
b11111 !
b10111 !
b10011 !
b10001 !
b10000 !
0=
0<
0;
0:
19
1$
0+
#102000
b10001 !
1=
0$
1+
#108000
b10011 !
b10010 !
0=
1<
1$
0+
1-
#114000
b10011 !
1=
0$
1+
#120000
b10111 !
b10101 !
b10100 !
0=
0<
1;
1$
0+
0-
#126000
b11 "
b10101 !
1=
16
0$
#132000
b10111 !
b10110 !
0=
1<
1$
1+
#138000
b10111 !
1=
0$
0+
#144000
b11111 !
b11011 !
b11001 !
b11000 !
0=
0<
0;
1:
1$
1+
#150000
b11001 !
1=
0$
0+
#156000
b11011 !
b11010 !
0=
1<
1$
1+
1-
#162000
b11011 !
1=
0$
0+
#168000
b111 "
b101 "
b100 "
b11111 !
b11101 !
b11100 !
0=
0<
1;
06
05
14
1$
#174000
b11101 !
1=
0$
1+
#180000
b11111 !
b11110 !
0=
1<
1$
0+
0-
#186000
b11111 !
1=
0$
1+
#192000
b111111 !
b101111 !
b100111 !
b100011 !
b100001 !
b100000 !
0=
0<
0;
0:
09
18
1$
0+
1,
0.
#198000
b100001 !
1=
0$
1+
#204000
b100011 !
b100010 !
0=
1<
1$
0+
#210000
b101 "
b100011 !
1=
16
0$
#216000
b100111 !
b100101 !
b100100 !
0=
0<
1;
1$
1+
1-
#222000
b100101 !
1=
0$
0+
#228000
b100111 !
b100110 !
0=
1<
1$
1+
0-
#234000
b100111 !
1=
0$
0+
#240000
b101111 !
b101011 !
b101001 !
b101000 !
0=
0<
0;
1:
1$
1+
0,
#246000
b101001 !
1=
0$
0+
#252000
b111 "
b110 "
b101011 !
b101010 !
0=
1<
06
15
1$
#258000
b101011 !
1=
0$
1+
#264000
b101111 !
b101101 !
b101100 !
0=
0<
1;
1$
0+
#270000
b101101 !
1=
0$
1+
#276000
b101111 !
b101110 !
0=
1<
1$
0+
1-
#282000
b101111 !
1=
0$
1+
#288000
b111111 !
b110111 !
b110011 !
b110001 !
b110000 !
0=
0<
0;
0:
19
1$
0+
0-
#294000
b111 "
b110001 !
1=
16
0$
#300000
b110011 !
b110010 !
0=
1<
1$
1+
#306000
b110011 !
1=
0$
0+
#312000
b110111 !
b110101 !
b110100 !
0=
0<
1;
1$
1+
#318000
b110101 !
1=
0$
0+
#324000
b110111 !
b110110 !
0=
1<
1$
1+
1-
#330000
b110111 !
1=
0$
0+
#336000
b1111 "
b1011 "
b1001 "
b111111 !
b1000 "
b111011 !
b111001 !
b111000 !
0=
0<
0;
1:
06
05
04
13
1$
#342000
b111001 !
1=
0$
1+
#348000
b111011 !
b111010 !
0=
1<
1$
0+
0-
#354000
b111011 !
1=
0$
1+
#360000
b111111 !
b111101 !
b111100 !
0=
0<
1;
1$
0+
#366000
b111101 !
1=
0$
1+
#372000
b111111 !
b111110 !
0=
1<
1$
0+
#378000
b1001 "
b111111 !
1=
16
0$
#384000
b1111111 !
b1011111 !
b1001111 !
b1000111 !
b1000011 !
b1000001 !
b1000000 !
0=
0<
0;
0:
09
08
17
1$
1+
1-
#390000
b1000001 !
1=
0$
0+
#396000
b1000011 !
b1000010 !
0=
1<
1$
1+
0-
#402000
b1000011 !
1=
0$
0+
#408000
b1000111 !
b1000101 !
b1000100 !
0=
0<
1;
1$
1+
#414000
b1000101 !
1=
0$
0+
#420000
b1011 "
b1010 "
b1000111 !
b1000110 !
0=
1<
06
15
1$
#426000
b1000111 !
1=
0$
1+
#432000
b1001111 !
b1001011 !
b1001001 !
b1001000 !
0=
0<
0;
1:
1$
0+
1,
#438000
b1001001 !
1=
0$
1+
#444000
b1001011 !
b1001010 !
0=
1<
1$
0+
1-
#450000
b1001011 !
1=
0$
1+
#456000
b1001111 !
b1001101 !
b1001100 !
0=
0<
1;
1$
0+
0-
#462000
b1011 "
b1001101 !
1=
16
0$
#468000
b1001111 !
b1001110 !
0=
1<
1$
1+
#474000
b1001111 !
1=
0$
0+
#480000
b1011111 !
b1010111 !
b1010011 !
b1010001 !
b1010000 !
0=
0<
0;
0:
19
1$
1+
0,
#486000
b1010001 !
1=
0$
0+
#492000
b1010011 !
b1010010 !
0=
1<
1$
1+
1-
#498000
b1010011 !
1=
0$
0+
#504000
b1111 "
b1101 "
b1100 "
b1010111 !
b1010101 !
b1010100 !
0=
0<
1;
06
05
14
1$
#510000
b1010101 !
1=
0$
1+
#516000
b1010111 !
b1010110 !
0=
1<
1$
0+
0-
#522000
b1010111 !
1=
0$
1+
#528000
b1011111 !
b1011011 !
b1011001 !
b1011000 !
0=
0<
0;
1:
1$
0+
#534000
b1011001 !
1=
0$
1+
#540000
b1011011 !
b1011010 !
0=
1<
1$
0+
#546000
b1101 "
b1011011 !
1=
16
0$
#552000
b1011111 !
b1011101 !
b1011100 !
0=
0<
1;
1$
1+
1-
#558000
b1011101 !
1=
0$
0+
#564000
b1011111 !
b1011110 !
0=
1<
1$
1+
0-
#570000
b1011111 !
1=
0$
0+
#576000
b1111111 !
b1101111 !
b1100111 !
b1100011 !
b1100001 !
b1100000 !
0=
0<
0;
0:
09
18
1$
1+
#582000
b1100001 !
1=
0$
0+
#588000
b1111 "
b1110 "
b1100011 !
b1100010 !
0=
1<
06
15
1$
#594000
b1100011 !
1=
0$
1+
#600000
b1100111 !
b1100101 !
b1100100 !
0=
0<
1;
1$
0+
#606000
b1100101 !
1=
0$
1+
#612000
b1100111 !
b1100110 !
0=
1<
1$
0+
1-
#618000
b1100111 !
1=
0$
1+
#624000
b1101111 !
b1101011 !
b1101001 !
b1101000 !
0=
0<
0;
1:
1$
0+
0-
1,
#630000
b1111 "
b1101001 !
1=
16
0$
#636000
b1101011 !
b1101010 !
0=
1<
1$
1+
#642000
b1101011 !
1=
0$
0+
#648000
b1101111 !
b1101101 !
b1101100 !
0=
0<
1;
1$
1+
#654000
b1101101 !
1=
0$
0+
#660000
b1101111 !
b1101110 !
0=
1<
1$
1+
1-
#666000
b1101111 !
1=
0$
0+
#672000
b11111 "
b10111 "
b10011 "
b1111111 !
b10001 "
b1110111 !
b10000 "
b1110011 !
b1110001 !
b1110000 !
0=
0<
0;
0:
19
06
05
04
03
12
1$
#678000
b1110001 !
1=
0$
1+
#684000
b1110011 !
b1110010 !
0=
1<
1$
0+
0-
#690000
b1110011 !
1=
0$
1+
#696000
b1110111 !
b1110101 !
b1110100 !
0=
0<
1;
1$
0+
#702000
b1110101 !
1=
0$
1+
#708000
b1110111 !
b1110110 !
0=
1<
1$
0+
#714000
b10001 "
b1110111 !
1=
16
0$
#720000
b1111111 !
b1111011 !
b1111001 !
b1111000 !
0=
0<
0;
1:
1$
1+
1-
0,
#726000
b1111001 !
1=
0$
0+
#732000
b1111011 !
b1111010 !
0=
1<
1$
1+
0-
#738000
b1111011 !
1=
0$
0+
#744000
b1111111 !
b1111101 !
b1111100 !
0=
0<
1;
1$
1+
#750000
b1111101 !
1=
0$
0+
#756000
b10011 "
b10010 "
b1111111 !
b1111110 !
0=
1<
06
15
1$
#762000
b1111111 !
1=
0$
1+
#768000
b111111 !
b11111 !
b1111 !
b111 !
b11 !
b1 !
b0 !
0=
0<
0;
0:
09
08
07
1$
0+
1.
#774000
b1 !
1=
0$
1+
#780000
b11 !
b10 !
0=
1<
1$
0+
1-
#786000
b11 !
1=
0$
1+
#792000
b111 !
b101 !
b100 !
0=
0<
1;
1$
0+
0-
#798000
b10011 "
b101 !
1=
16
0$
#804000
b111 !
b110 !
0=
1<
1$
1+
#810000
b111 !
1=
0$
0+
#816000
b1111 !
b1011 !
b1001 !
b1000 !
0=
0<
0;
1:
1$
1+
#822000
b1001 !
1=
0$
0+
#828000
b1011 !
b1010 !
0=
1<
1$
1+
1-
#834000
b1011 !
1=
0$
0+
#840000
b10111 "
b10101 "
b10100 "
b1111 !
b1101 !
b1100 !
0=
0<
1;
06
05
14
1$
#846000
b1101 !
1=
0$
1+
#852000
b1111 !
b1110 !
0=
1<
1$
0+
0-
#858000
b1111 !
1=
0$
1+
#864000
b11111 !
b10111 !
b10011 !
b10001 !
b10000 !
0=
0<
0;
0:
19
1$
0+
1,
#870000
b10001 !
1=
0$
1+
#876000
b10011 !
b10010 !
0=
1<
1$
0+
#882000
b10101 "
b10011 !
1=
16
0$
#888000
b10111 !
b10101 !
b10100 !
0=
0<
1;
1$
1+
1-
#894000
b10101 !
1=
0$
0+
1/
1#
#900000
b10111 !
b10110 !
0=
1<
1$
1+
0-
0/
0#
#906000
b10111 !
1=
0$
0+
#912000
b11111 !
b11011 !
b11001 !
b11000 !
0=
0<
0;
1:
1$
1+
0,
#918000
b11001 !
1=
0$
0+
#924000
b10111 "
b10110 "
b11011 !
b11010 !
0=
1<
06
15
1$
#930000
b11011 !
1=
0$
1+
#936000
b11111 !
b11101 !
b11100 !
0=
0<
1;
1$
0+
#942000
b11101 !
1=
0$
1+
#948000
b11111 !
b11110 !
0=
1<
1$
0+
1-
#954000
b11111 !
1=
0$
1+
#960000
b111111 !
b101111 !
b100111 !
b100011 !
b100001 !
b100000 !
0=
0<
0;
0:
09
18
1$
0+
0-
0.
#966000
b10111 "
b100001 !
1=
16
0$
#972000
b100011 !
b100010 !
0=
1<
1$
1+
#978000
b100011 !
1=
0$
0+
#984000
b100111 !
b100101 !
b100100 !
0=
0<
1;
1$
1+
#990000
b100101 !
1=
0$
0+
#996000
b100111 !
b100110 !
0=
1<
1$
1+
1-
#1002000
b100111 !
1=
0$
0+
#1008000
b11111 "
b11011 "
b11001 "
b101111 !
b11000 "
b101011 !
b101001 !
b101000 !
0=
0<
0;
1:
06
05
04
13
1$
#1014000
b101001 !
1=
0$
1+
#1020000
b101011 !
b101010 !
0=
1<
1$
0+
0-
#1026000
b101011 !
1=
0$
1+
#1032000
b101111 !
b101101 !
b101100 !
0=
0<
1;
1$
0+
#1038000
b101101 !
1=
0$
1+
#1044000
b101111 !
b101110 !
0=
1<
1$
0+
#1050000
b11001 "
b101111 !
1=
16
0$
#1056000
b111111 !
b110111 !
b110011 !
b110001 !
b110000 !
0=
0<
0;
0:
19
1$
1+
1-
#1062000
b110001 !
1=
0$
0+
#1068000
b110011 !
b110010 !
0=
1<
1$
1+
0-
#1074000
b110011 !
1=
0$
0+
#1080000
b110111 !
b110101 !
b110100 !
0=
0<
1;
1$
1+
#1086000
b110101 !
1=
0$
0+
#1092000
b11011 "
b11010 "
b110111 !
b110110 !
0=
1<
06
15
1$
#1098000
b110111 !
1=
0$
1+
#1104000
b111111 !
b111011 !
b111001 !
b111000 !
0=
0<
0;
1:
1$
0+
1,
#1110000
b111001 !
1=
0$
1+
#1116000
b111011 !
b111010 !
0=
1<
1$
0+
1-
#1122000
b111011 !
1=
0$
1+
#1128000
b111111 !
b111101 !
b111100 !
0=
0<
1;
1$
0+
0-
#1134000
b11011 "
b111101 !
1=
16
0$
#1140000
b111111 !
b111110 !
0=
1<
1$
1+
#1146000
b111111 !
1=
0$
0+
#1152000
b1111111 !
b1011111 !
b1001111 !
b1000111 !
b1000011 !
b1000001 !
b1000000 !
0=
0<
0;
0:
09
08
17
1$
1+
0,
#1158000
b1000001 !
1=
0$
0+
#1164000
b1000011 !
b1000010 !
0=
1<
1$
1+
1-
#1170000
b1000011 !
1=
0$
0+
#1176000
b11111 "
b11101 "
b11100 "
b1000111 !
b1000101 !
b1000100 !
0=
0<
1;
06
05
14
1$
#1182000
b1000101 !
1=
0$
1+
#1188000
b1000111 !
b1000110 !
0=
1<
1$
0+
0-
#1194000
b1000111 !
1=
0$
1+
#1200000
b1001111 !
b1001011 !
b1001001 !
b1001000 !
0=
0<
0;
1:
1$
0+
#1206000
b1001001 !
1=
0$
1+
#1212000
b1001011 !
b1001010 !
0=
1<
1$
0+
#1218000
b11101 "
b1001011 !
1=
16
0$
#1224000
b1001111 !
b1001101 !
b1001100 !
0=
0<
1;
1$
1+
1-
#1230000
b1001101 !
1=
0$
0+
#1236000
b1001111 !
b1001110 !
0=
1<
1$
1+
0-
#1242000
b1001111 !
1=
0$
0+
#1248000
b1011111 !
b1010111 !
b1010011 !
b1010001 !
b1010000 !
0=
0<
0;
0:
19
1$
1+
#1254000
b1010001 !
1=
0$
0+
#1260000
b11111 "
b11110 "
b1010011 !
b1010010 !
0=
1<
06
15
1$
#1266000
b1010011 !
1=
0$
1+
#1272000
b1010111 !
b1010101 !
b1010100 !
0=
0<
1;
1$
0+
#1278000
b1010101 !
1=
0$
1+
#1284000
b1010111 !
b1010110 !
0=
1<
1$
0+
1-
#1290000
b1010111 !
1=
0$
1+
#1296000
b1011111 !
b1011011 !
b1011001 !
b1011000 !
0=
0<
0;
1:
1$
0+
0-
1,
#1302000
b11111 "
b1011001 !
1=
16
0$
#1308000
b1011011 !
b1011010 !
0=
1<
1$
1+
#1314000
b1011011 !
1=
0$
0+
#1320000
b1011111 !
b1011101 !
b1011100 !
0=
0<
1;
1$
1+
#1326000
b1011101 !
1=
0$
0+
#1332000
b1011111 !
b1011110 !
0=
1<
1$
1+
1-
#1338000
b1011111 !
1=
0$
0+
#1344000
b111111 "
b101111 "
b100111 "
b1111111 !
b100011 "
b1101111 !
b100001 "
b1100111 !
b100000 "
b1100011 !
b1100001 !
b1100000 !
0=
0<
0;
0:
09
18
06
05
04
03
02
11
1$
#1350000
b1100001 !
1=
0$
1+
#1356000
b1100011 !
b1100010 !
0=
1<
1$
0+
0-
#1362000
b1100011 !
1=
0$
1+
#1368000
b1100111 !
b1100101 !
b1100100 !
0=
0<
1;
1$
0+
#1374000
b1100101 !
1=
0$
1+
#1380000
b1100111 !
b1100110 !
0=
1<
1$
0+
#1386000
b100001 "
b1100111 !
1=
16
0$
#1392000
b1101111 !
b1101011 !
b1101001 !
b1101000 !
0=
0<
0;
1:
1$
1+
1-
0,
#1398000
b1101001 !
1=
0$
0+
#1404000
b1101011 !
b1101010 !
0=
1<
1$
1+
0-
#1410000
b1101011 !
1=
0$
0+
#1416000
b1101111 !
b1101101 !
b1101100 !
0=
0<
1;
1$
1+
#1422000
b1101101 !
1=
0$
0+
#1428000
b100011 "
b100010 "
b1101111 !
b1101110 !
0=
1<
06
15
1$
#1434000
b1101111 !
1=
0$
1+
#1440000
b1111111 !
b1110111 !
b1110011 !
b1110001 !
b1110000 !
0=
0<
0;
0:
19
1$
0+
#1446000
b1110001 !
1=
0$
1+
#1452000
b1110011 !
b1110010 !
0=
1<
1$
0+
1-
#1458000
b1110011 !
1=
0$
1+
#1464000
b1110111 !
b1110101 !
b1110100 !
0=
0<
1;
1$
0+
0-
#1470000
b100011 "
b1110101 !
1=
16
0$
#1476000
b1110111 !
b1110110 !
0=
1<
1$
1+
#1482000
b1110111 !
1=
0$
0+
#1488000
b1111111 !
b1111011 !
b1111001 !
b1111000 !
0=
0<
0;
1:
1$
1+
#1494000
b1111001 !
1=
0$
0+
#1500000
b1111011 !
b1111010 !
0=
1<
1$
1+
1-
#1506000
b1111011 !
1=
0$
0+
#1512000
b100111 "
b100101 "
b100100 "
b1111111 !
b1111101 !
b1111100 !
0=
0<
1;
06
05
14
1$
#1518000
b1111101 !
1=
0$
1+
#1524000
b1111111 !
b1111110 !
0=
1<
1$
0+
0-
#1530000
b1111111 !
1=
0$
1+
#1536000
b111111 !
b11111 !
b1111 !
b111 !
b11 !
b1 !
b0 !
0=
0<
0;
0:
09
08
07
1$
0+
1,
#1542000
b1 !
1=
0$
1+
#1548000
b11 !
b10 !
0=
1<
1$
0+
#1554000
b100101 "
b11 !
1=
16
0$
#1560000
b111 !
b101 !
b100 !
0=
0<
1;
1$
1+
1-
#1566000
b101 !
1=
0$
0+
#1572000
b111 !
b110 !
0=
1<
1$
1+
0-
#1578000
b111 !
1=
0$
0+
#1584000
b1111 !
b1011 !
b1001 !
b1000 !
0=
0<
0;
1:
1$
1+
0,
#1590000
b1001 !
1=
0$
0+
#1596000
b100111 "
b100110 "
b1011 !
b1010 !
0=
1<
06
15
1$
#1602000
b1011 !
1=
0$
1+
#1608000
b1111 !
b1101 !
b1100 !
0=
0<
1;
1$
0+
#1614000
b1101 !
1=
0$
1+
#1620000
b1111 !
b1110 !
0=
1<
1$
0+
1-
#1626000
b1111 !
1=
0$
1+
#1632000
b11111 !
b10111 !
b10011 !
b10001 !
b10000 !
0=
0<
0;
0:
19
1$
0+
0-
#1638000
b100111 "
b10001 !
1=
16
0$
#1644000
b10011 !
b10010 !
0=
1<
1$
1+
#1650000
b10011 !
1=
0$
0+
#1656000
b10111 !
b10101 !
b10100 !
0=
0<
1;
1$
1+
#1662000
b10101 !
1=
0$
0+
#1668000
b10111 !
b10110 !
0=
1<
1$
1+
1-
#1674000
b10111 !
1=
0$
0+
#1680000
b101111 "
b101011 "
b101001 "
b11111 !
b101000 "
b11011 !
b11001 !
b11000 !
0=
0<
0;
1:
06
05
04
13
1$
#1686000
b11001 !
1=
0$
1+
#1692000
b11011 !
b11010 !
0=
1<
1$
0+
0-
#1698000
b11011 !
1=
0$
1+
#1704000
b11111 !
b11101 !
b11100 !
0=
0<
1;
1$
0+
#1710000
b11101 !
1=
0$
1+
#1716000
b11111 !
b11110 !
0=
1<
1$
0+
#1722000
b101001 "
b11111 !
1=
16
0$
#1728000
b111111 !
b101111 !
b100111 !
b100011 !
b100001 !
b100000 !
0=
0<
0;
0:
09
18
1$
1+
1-
1.
#1734000
b100001 !
1=
0$
0+
#1740000
b100011 !
b100010 !
0=
1<
1$
1+
0-
#1746000
b100011 !
1=
0$
0+
#1752000
b100111 !
b100101 !
b100100 !
0=
0<
1;
1$
1+
#1758000
b100101 !
1=
0$
0+
#1764000
b101011 "
b101010 "
b100111 !
b100110 !
0=
1<
06
15
1$
#1770000
b100111 !
1=
0$
1+
#1776000
b101111 !
b101011 !
b101001 !
b101000 !
0=
0<
0;
1:
1$
0+
1,
#1782000
b101001 !
1=
0$
1+
#1788000
b101011 !
b101010 !
0=
1<
1$
0+
1-
1/
1#
#1794000
b101011 !
1=
0$
1+
0/
0#
#1800000
b101111 !
b101101 !
b101100 !
0=
0<
1;
1$
0+
0-
#1806000
b101011 "
b101101 !
1=
16
0$
#1812000
b101111 !
b101110 !
0=
1<
1$
1+
#1818000
b101111 !
1=
0$
0+
#1824000
b111111 !
b110111 !
b110011 !
b110001 !
b110000 !
0=
0<
0;
0:
19
1$
1+
0,
#1830000
b110001 !
1=
0$
0+
#1836000
b110011 !
b110010 !
0=
1<
1$
1+
1-
#1842000
b110011 !
1=
0$
0+
#1848000
b101111 "
b101101 "
b101100 "
b110111 !
b110101 !
b110100 !
0=
0<
1;
06
05
14
1$
#1854000
b110101 !
1=
0$
1+
#1860000
b110111 !
b110110 !
0=
1<
1$
0+
0-
#1866000
b110111 !
1=
0$
1+
#1872000
b111111 !
b111011 !
b111001 !
b111000 !
0=
0<
0;
1:
1$
0+
#1878000
b111001 !
1=
0$
1+
#1884000
b111011 !
b111010 !
0=
1<
1$
0+
#1890000
b101101 "
b111011 !
1=
16
0$
#1896000
b111111 !
b111101 !
b111100 !
0=
0<
1;
1$
1+
1-
#1902000
b111101 !
1=
0$
0+
#1908000
b111111 !
b111110 !
0=
1<
1$
1+
0-
#1914000
b111111 !
1=
0$
0+
#1920000
b1111111 !
b1011111 !
b1001111 !
b1000111 !
b1000011 !
b1000001 !
b1000000 !
0=
0<
0;
0:
09
08
17
1$
1+
0.
#1926000
b1000001 !
1=
0$
0+
#1932000
b101111 "
b101110 "
b1000011 !
b1000010 !
0=
1<
06
15
1$
#1938000
b1000011 !
1=
0$
1+
#1944000
b1000111 !
b1000101 !
b1000100 !
0=
0<
1;
1$
0+
#1950000
b1000101 !
1=
0$
1+
#1956000
b1000111 !
b1000110 !
0=
1<
1$
0+
1-
#1962000
b1000111 !
1=
0$
1+
#1968000
b1001111 !
b1001011 !
b1001001 !
b1001000 !
0=
0<
0;
1:
1$
0+
0-
1,
#1974000
b101111 "
b1001001 !
1=
16
0$
#1980000
b1001011 !
b1001010 !
0=
1<
1$
1+
#1986000
b1001011 !
1=
0$
0+
#1992000
b1001111 !
b1001101 !
b1001100 !
0=
0<
1;
1$
1+
#1998000
b1001101 !
1=
0$
0+
#2004000
b1001111 !
b1001110 !
0=
1<
1$
1+
1-
#2010000
b1001111 !
1=
0$
0+
#2016000
b111111 "
b110111 "
b110011 "
b1011111 !
b110001 "
b1010111 !
b110000 "
b1010011 !
b1010001 !
b1010000 !
0=
0<
0;
0:
19
06
05
04
03
12
1$
#2022000
b1010001 !
1=
0$
1+
#2028000
b1010011 !
b1010010 !
0=
1<
1$
0+
0-
#2034000
b1010011 !
1=
0$
1+
#2040000
b1010111 !
b1010101 !
b1010100 !
0=
0<
1;
1$
0+
#2046000
b1010101 !
1=
0$
1+
#2052000
b1010111 !
b1010110 !
0=
1<
1$
0+
#2058000
b110001 "
b1010111 !
1=
16
0$
#2064000
b1011111 !
b1011011 !
b1011001 !
b1011000 !
0=
0<
0;
1:
1$
1+
1-
0,
#2070000
b1011001 !
1=
0$
0+
#2076000
b1011011 !
b1011010 !
0=
1<
1$
1+
0-
#2082000
b1011011 !
1=
0$
0+
#2088000
b1011111 !
b1011101 !
b1011100 !
0=
0<
1;
1$
1+
#2094000
b1011101 !
1=
0$
0+
#2100000
b110011 "
b110010 "
b1011111 !
b1011110 !
0=
1<
06
15
1$
#2106000
b1011111 !
1=
0$
1+
#2112000
b1111111 !
b1101111 !
b1100111 !
b1100011 !
b1100001 !
b1100000 !
0=
0<
0;
0:
09
18
1$
0+
#2118000
b1100001 !
1=
0$
1+
#2124000
b1100011 !
b1100010 !
0=
1<
1$
0+
1-
#2130000
b1100011 !
1=
0$
1+
#2136000
b1100111 !
b1100101 !
b1100100 !
0=
0<
1;
1$
0+
0-
#2142000
b110011 "
b1100101 !
1=
16
0$
#2148000
b1100111 !
b1100110 !
0=
1<
1$
1+
#2154000
b1100111 !
1=
0$
0+
#2160000
b1101111 !
b1101011 !
b1101001 !
b1101000 !
0=
0<
0;
1:
1$
1+
#2166000
b1101001 !
1=
0$
0+
#2172000
b1101011 !
b1101010 !
0=
1<
1$
1+
1-
#2178000
b1101011 !
1=
0$
0+
#2184000
b110111 "
b110101 "
b110100 "
b1101111 !
b1101101 !
b1101100 !
0=
0<
1;
06
05
14
1$
#2190000
b1101101 !
1=
0$
1+
#2196000
b1101111 !
b1101110 !
0=
1<
1$
0+
0-
#2202000
b1101111 !
1=
0$
1+
#2208000
b1111111 !
b1110111 !
b1110011 !
b1110001 !
b1110000 !
0=
0<
0;
0:
19
1$
0+
1,
#2214000
b1110001 !
1=
0$
1+
#2220000
b1110011 !
b1110010 !
0=
1<
1$
0+
#2226000
b110101 "
b1110011 !
1=
16
0$
#2232000
b1110111 !
b1110101 !
b1110100 !
0=
0<
1;
1$
1+
1-
#2238000
b1110101 !
1=
0$
0+
#2244000
b1110111 !
b1110110 !
0=
1<
1$
1+
0-
#2250000
b1110111 !
1=
0$
0+
#2256000
b1111111 !
b1111011 !
b1111001 !
b1111000 !
0=
0<
0;
1:
1$
1+
0,
#2262000
b1111001 !
1=
0$
0+
#2268000
b110111 "
b110110 "
b1111011 !
b1111010 !
0=
1<
06
15
1$
#2274000
b1111011 !
1=
0$
1+
#2280000
b1111111 !
b1111101 !
b1111100 !
0=
0<
1;
1$
0+
#2286000
b1111101 !
1=
0$
1+
#2292000
b1111111 !
b1111110 !
0=
1<
1$
0+
1-
#2298000
b1111111 !
1=
0$
1+
#2304000
b111111 !
b11111 !
b1111 !
b111 !
b11 !
b1 !
b0 !
0=
0<
0;
0:
09
08
07
1$
0+
0-
#2310000
b110111 "
b1 !
1=
16
0$
#2316000
b11 !
b10 !
0=
1<
1$
1+
#2322000
b11 !
1=
0$
0+
#2328000
b111 !
b101 !
b100 !
0=
0<
1;
1$
1+
#2334000
b101 !
1=
0$
0+
#2340000
b111 !
b110 !
0=
1<
1$
1+
1-
#2346000
b111 !
1=
0$
0+
#2352000
b111111 "
b111011 "
b111001 "
b1111 !
b111000 "
b1011 !
b1001 !
b1000 !
0=
0<
0;
1:
06
05
04
13
1$
#2358000
b1001 !
1=
0$
1+
#2364000
b1011 !
b1010 !
0=
1<
1$
0+
0-
#2370000
b1011 !
1=
0$
1+
#2376000
b1111 !
b1101 !
b1100 !
0=
0<
1;
1$
0+
#2382000
b1101 !
1=
0$
1+
#2388000
b1111 !
b1110 !
0=
1<
1$
0+
#2394000
b111001 "
b1111 !
1=
16
0$
#2400000
b11111 !
b10111 !
b10011 !
b10001 !
b10000 !
0=
0<
0;
0:
19
1$
1+
1-
#2406000
b10001 !
1=
0$
0+
#2412000
b10011 !
b10010 !
0=
1<
1$
1+
0-
#2418000
b10011 !
1=
0$
0+
#2424000
b10111 !
b10101 !
b10100 !
0=
0<
1;
1$
1+
#2430000
b10101 !
1=
0$
0+
#2436000
b111011 "
b111010 "
b10111 !
b10110 !
0=
1<
06
15
1$
#2442000
b10111 !
1=
0$
1+
#2448000
b11111 !
b11011 !
b11001 !
b11000 !
0=
0<
0;
1:
1$
0+
1,
#2454000
b11001 !
1=
0$
1+
#2460000
b11011 !
b11010 !
0=
1<
1$
0+
1-
#2466000
b11011 !
1=
0$
1+
#2472000
b11111 !
b11101 !
b11100 !
0=
0<
1;
1$
0+
0-
#2478000
b111011 "
b11101 !
1=
16
0$
#2484000
b11111 !
b11110 !
0=
1<
1$
1+
#2490000
b11111 !
1=
0$
0+
#2496000
b111111 !
b101111 !
b100111 !
b100011 !
b100001 !
b100000 !
0=
0<
0;
0:
09
18
1$
1+
0,
1.
#2502000
b100001 !
1=
0$
0+
#2508000
b100011 !
b100010 !
0=
1<
1$
1+
1-
#2514000
b100011 !
1=
0$
0+
#2520000
b111111 "
b111101 "
b111100 "
b100111 !
b100101 !
b100100 !
0=
0<
1;
06
05
14
1$
#2526000
b100101 !
1=
0$
1+
#2532000
b100111 !
b100110 !
0=
1<
1$
0+
0-
#2538000
b100111 !
1=
0$
1+
#2544000
b101111 !
b101011 !
b101001 !
b101000 !
0=
0<
0;
1:
1$
0+
#2550000
b101001 !
1=
0$
1+
#2556000
b101011 !
b101010 !
0=
1<
1$
0+
#2562000
b111101 "
b101011 !
1=
16
0$
#2568000
b101111 !
b101101 !
b101100 !
0=
0<
1;
1$
1+
1-
#2574000
b101101 !
1=
0$
0+
#2580000
b101111 !
b101110 !
0=
1<
1$
1+
0-
#2586000
b101111 !
1=
0$
0+
#2592000
b111111 !
b110111 !
b110011 !
b110001 !
b110000 !
0=
0<
0;
0:
19
1$
1+
#2598000
b110001 !
1=
0$
0+
#2604000
b111111 "
b111110 "
b110011 !
b110010 !
0=
1<
06
15
1$
#2610000
b110011 !
1=
0$
1+
#2616000
b110111 !
b110101 !
b110100 !
0=
0<
1;
1$
0+
#2622000
b110101 !
1=
0$
1+
#2628000
b110111 !
b110110 !
0=
1<
1$
0+
1-
#2634000
b110111 !
1=
0$
1+
#2640000
b111111 !
b111011 !
b111001 !
b111000 !
0=
0<
0;
1:
1$
0+
0-
1,
#2646000
b111111 "
b111001 !
1=
16
0$
#2652000
b111011 !
b111010 !
0=
1<
1$
1+
#2658000
b111011 !
1=
0$
0+
#2664000
b111111 !
b111101 !
b111100 !
0=
0<
1;
1$
1+
#2670000
b111101 !
1=
0$
0+
#2676000
b111111 !
b111110 !
0=
1<
1$
1+
1-
#2682000
b111111 !
1=
0$
0+
1/
1#
